func_gen/func_gen.vcd
$date
	Fri Sep 29 21:55:37 2023
$end
$version
	Icarus Verilog
$end
$timescale
	1s
$end
$scope module tb_func_gen $end
$var wire 12 ! wave [11:0] $end
$var reg 1 " a_set $end
$var reg 1 # clk $end
$var reg 20 $ f_set [19:0] $end
$var reg 1 % rst $end
$var reg 1 & s_clk $end
$var reg 1 ' w_set $end
$scope module func_gen $end
$var wire 1 " a_set $end
$var wire 1 # clk $end
$var wire 20 ( f_set [19:0] $end
$var wire 1 % rst $end
$var wire 1 & s_clk $end
$var wire 1 ' w_set $end
$var wire 12 ) wave_2V [11:0] $end
$var wire 12 * wave_1V [11:0] $end
$var wire 12 + wave [11:0] $end
$var wire 12 , addr12_w_i [11:0] $end
$var wire 12 - addr12_w [11:0] $end
$var wire 1 . addr12_gen_en $end
$var wire 11 / addr11_w_i [10:0] $end
$var wire 11 0 addr11_w [10:0] $end
$var wire 1 1 addr11_gen_en $end
$scope module addr11_gen $end
$var wire 1 # clk $end
$var wire 1 1 en $end
$var wire 20 2 f_set [19:0] $end
$var wire 1 % rst $end
$var wire 1 & s_clk $end
$var wire 24 3 f_din [23:0] $end
$var wire 29 4 cnt_in [28:0] $end
$var wire 29 5 cnt_df [28:0] $end
$var wire 11 6 addr [10:0] $end
$var reg 11 7 addr_r [10:0] $end
$var reg 29 8 cnt_bas [28:0] $end
$var reg 1 9 pl0 $end
$var reg 1 : pl1 $end
$upscope $end
$scope module addr12_gen $end
$var wire 1 # clk $end
$var wire 1 . en $end
$var wire 20 ; f_set [19:0] $end
$var wire 1 % rst $end
$var wire 1 & s_clk $end
$var wire 24 < f_din [23:0] $end
$var wire 29 = cnt_in [28:0] $end
$var wire 29 > cnt_df [28:0] $end
$var wire 12 ? addr [11:0] $end
$var reg 12 @ addr_r [11:0] $end
$var reg 29 A cnt_bas [28:0] $end
$var reg 1 B pl0 $end
$var reg 1 C pl1 $end
$upscope $end
$scope module usin11_rom $end
$var wire 11 D addr [10:0] $end
$var wire 1 # clk $end
$var wire 1 % rst $end
$var wire 12 E dout [11:0] $end
$var reg 11 F dout_r [10:0] $end
$upscope $end
$scope module usin12_rom $end
$var wire 12 G addr [11:0] $end
$var wire 1 # clk $end
$var wire 1 % rst $end
$var wire 12 H dout [11:0] $end
$var reg 12 I dout_r [11:0] $end
$upscope $end
$upscope $end
$upscope $end
$enddefinitions $end
#0
$dumpvars
bx I
bx H
bx G
bx F
b0xxxxxxxxxxx E
bx D
xC
xB
bx A
bx @
bx ?
bx >
bx =
b110000110101000000000 <
b11000011010100000 ;
x:
x9
bx 8
bx 7
bx 6
bx 5
bx 4
b11000011010100000000 3
b11000011010100000 2
01
bx 0
bx /
1.
bx -
bx ,
bx +
b0xxxxxxxxxxx *
bx )
b11000011010100000 (
0'
0&
1%
b11000011010100000 $
0#
1"
bx !
$end
#5
09
0B
1#
#10
b100000000000 !
b100000000000 +
b0 ,
b0 G
b0 /
b0 D
b0 )
b0 H
b0 I
b0 *
b0 E
b0 F
b0 -
b0 ?
b0 @
b110000110101000000000 >
b0 =
b0 A
0C
b0 0
b0 6
b0 7
b11000011010100000000 5
b0 4
b0 8
0:
0#
0%
#15
1#
#20
0#
1%
#25
b0 !
b0 +
b100000000000 )
b100000000000 H
b100000000000 I
b10000000000 *
b10000000000 E
b10000000000 F
1B
19
1#
1&
#30
0#
#35
1:
1C
b1100001101010000000000 >
b10100 =
b110000110101000000000 A
1#
#40
0#
#45
1#
#50
0#
0&
#55
09
0B
1#
#60
0#
#65
0C
0:
1#
#70
0#
#75
19
1B
1#
1&
#80
0#
#85
b10100 ,
b10100 G
b10100 -
b10100 ?
b10100 @
b10010010011111000000000 >
b101000 =
b1100001101010000000000 A
1C
1:
1#
#90
0#
#95
b111110 !
b111110 +
b100000111110 )
b100000111110 H
b100000111110 I
1#
#100
0#
0&
#105
0B
09
1#
#110
0#
#115
0:
0C
1#
#120
0#
#125
1B
19
1#
1&
#130
0#
#135
b101000 ,
b101000 G
1:
1C
b11000011010100000000000 >
b111101 =
b10010010011111000000000 A
b101000 -
b101000 ?
b101000 @
1#
#140
0#
#145
b1111101 !
b1111101 +
b100001111101 )
b100001111101 H
b100001111101 I
1#
#150
0#
0&
#155
09
0B
1#
#160
0#
#165
0C
0:
1#
#170
0#
#175
19
1B
1#
1&
#180
0#
#185
b111101 ,
b111101 G
b111101 -
b111101 ?
b111101 @
b11110100001001000000000 >
b1010001 =
b11000011010100000000000 A
1C
1:
1#
#190
0#
#195
b10111111 !
b10111111 +
b100010111111 )
b100010111111 H
b100010111111 I
1#
#200
0#
0&
#205
0B
09
1#
#210
0#
#215
0:
0C
1#
#220
0#
#225
1B
19
1#
1&
#230
0#
#235
b1010001 ,
b1010001 G
1:
1C
b100100100111110000000000 >
b1100110 =
b11110100001001000000000 A
b1010001 -
b1010001 ?
b1010001 @
1#
#240
0#
#245
b11111101 !
b11111101 +
b100011111101 )
b100011111101 H
b100011111101 I
1#
#250
0#
0&
#255
09
0B
1#
#260
0#
#265
0C
0:
1#
#270
0#
#275
19
1B
1#
1&
#280
0#
#285
b1100110 ,
b1100110 G
b1100110 -
b1100110 ?
b1100110 @
b101010101110011000000000 >
b1111010 =
b100100100111110000000000 A
1C
1:
1#
#290
0#
#295
b100111110 !
b100111110 +
b100100111110 )
b100100111110 H
b100100111110 I
1#
#300
0#
0&
#305
0B
09
1#
#310
0#
#315
0:
0C
1#
#320
0#
#325
1B
19
1#
1&
#330
0#
#335
b1111010 ,
b1111010 G
1:
1C
b110000110101000000000000 >
b10001111 =
b101010101110011000000000 A
b1111010 -
b1111010 ?
b1111010 @
1#
#340
0#
#345
b101111100 !
b101111100 +
b100101111100 )
b100101111100 H
b100101111100 I
1#
#350
0#
0&
#355
09
0B
1#
#360
0#
#365
0C
0:
1#
#370
0#
#375
19
1B
1#
1&
#380
0#
#385
b10001111 ,
b10001111 G
b10001111 -
b10001111 ?
b10001111 @
b110110111011101000000000 >
b10100011 =
b110000110101000000000000 A
1C
1:
1#
#390
0#
#395
b110111101 !
b110111101 +
b100110111101 )
b100110111101 H
b100110111101 I
1#
#400
0#
0&
#405
0B
09
1#
#410
0#
#415
0:
0C
1#
#420
0#
#425
1B
19
1#
1&
#430
0#
#435
b10100011 ,
b10100011 G
1:
1C
b111101000010010000000000 >
b10111000 =
b110110111011101000000000 A
b10100011 -
b10100011 ?
b10100011 @
1#
#440
0#
#445
b111111010 !
b111111010 +
b100111111010 )
b100111111010 H
b100111111010 I
1#
#450
0#
0&
#455
09
0B
1#
#460
0#
#465
0C
0:
1#
#470
0#
#475
19
1B
1#
1&
#480
0#
#485
b10111000 ,
b10111000 G
b10111000 -
b10111000 ?
b10111000 @
b1000011001000111000000000 >
b11001100 =
b111101000010010000000000 A
1C
1:
1#
#490
0#
#495
b1000111010 !
b1000111010 +
b101000111010 )
b101000111010 H
b101000111010 I
1#
#500
0#
0&
#505
0B
09
1#
#510
0#
#515
0:
0C
1#
#520
0#
#525
1B
19
1#
1&
#530
0#
#535
b11001100 ,
b11001100 G
1:
1C
b1001001001111100000000000 >
b11100001 =
b1000011001000111000000000 A
b11001100 -
b11001100 ?
b11001100 @
1#
#540
0#
#545
b1001110110 !
b1001110110 +
b101001110110 )
b101001110110 H
b101001110110 I
1#
#550
0#
0&
#555
09
0B
1#
#560
0#
#565
0C
0:
1#
#570
0#
#575
19
1B
1#
1&
#580
0#
#585
b11100001 ,
b11100001 G
b11100001 -
b11100001 ?
b11100001 @
b1001111010110001000000000 >
b11110101 =
b1001001001111100000000000 A
1C
1:
1#
#590
0#
#595
b1010110100 !
b1010110100 +
b101010110100 )
b101010110100 H
b101010110100 I
1#
#600
0#
0&
#605
0B
09
1#
#610
0#
#615
0:
0C
1#
#620
0#
#625
1B
19
1#
1&
#630
0#
#635
b11110101 ,
b11110101 G
1:
1C
b1010101011100110000000000 >
b100001010 =
b1001111010110001000000000 A
b11110101 -
b11110101 ?
b11110101 @
1#
#640
0#
#645
b1011101111 !
b1011101111 +
b101011101111 )
b101011101111 H
b101011101111 I
1#
#650
0#
0&
#655
09
0B
1#
#660
0#
#665
0C
0:
1#
#670
0#
#675
19
1B
1#
1&
#680
0#
#685
b100001010 ,
b100001010 G
b100001010 -
b100001010 ?
b100001010 @
b1011011100011011000000000 >
b100011110 =
b1010101011100110000000000 A
1C
1:
1#
#690
0#
#695
b1100101100 !
b1100101100 +
b101100101100 )
b101100101100 H
b101100101100 I
1#
#700
0#
0&
#705
0B
09
1#
#710
0#
#715
0:
0C
1#
#720
0#
#725
1B
19
1#
1&
#730
0#
#735
b100011110 ,
b100011110 G
1:
1C
b1100001101010000000000000 >
b100110011 =
b1011011100011011000000000 A
b100011110 -
b100011110 ?
b100011110 @
1#
#740
0#
#745
b1101100101 !
b1101100101 +
b101101100101 )
b101101100101 H
b101101100101 I
1#
#750
0#
0&
#755
09
0B
1#
#760
0#
#765
0C
0:
1#
#770
0#
#775
19
1B
1#
1&
#780
0#
#785
b100110011 ,
b100110011 G
b100110011 -
b100110011 ?
b100110011 @
b1100111110000101000000000 >
b101000111 =
b1100001101010000000000000 A
1C
1:
1#
#790
0#
#795
b1110100000 !
b1110100000 +
b101110100000 )
b101110100000 H
b101110100000 I
1#
#800
0#
0&
#805
0B
09
1#
#810
0#
#815
0:
0C
1#
#820
0#
#825
1B
19
1#
1&
#830
0#
#835
b101000111 ,
b101000111 G
1:
1C
b1101101110111010000000000 >
b101011100 =
b1100111110000101000000000 A
b101000111 -
b101000111 ?
b101000111 @
1#
#840
0#
#845
b1111011000 !
b1111011000 +
b101111011000 )
b101111011000 H
b101111011000 I
1#
#850
0#
0&
#855
09
0B
1#
#860
0#
#865
0C
0:
1#
#870
0#
#875
19
1B
1#
1&
#880
0#
#885
b101011100 ,
b101011100 G
b101011100 -
b101011100 ?
b101011100 @
b1110011111101111000000000 >
b101110000 =
b1101101110111010000000000 A
1C
1:
1#
#890
0#
#895
b10000010001 !
b10000010001 +
b110000010001 )
b110000010001 H
b110000010001 I
1#
#900
0#
0&
#905
0B
09
1#
#910
0#
#915
0:
0C
1#
#920
0#
#925
1B
19
1#
1&
#930
0#
#935
b101110000 ,
b101110000 G
1:
1C
b1111010000100100000000000 >
b110000101 =
b1110011111101111000000000 A
b101110000 -
b101110000 ?
b101110000 @
1#
#940
0#
#945
b10001000111 !
b10001000111 +
b110001000111 )
b110001000111 H
b110001000111 I
1#
#950
0#
0&
#955
09
0B
1#
#960
0#
#965
0C
0:
1#
#970
0#
#975
19
1B
1#
1&
#980
0#
#985
b110000101 ,
b110000101 G
b110000101 -
b110000101 ?
b110000101 @
b10000000001011001000000000 >
b110011001 =
b1111010000100100000000000 A
1C
1:
1#
#990
0#
#995
b10001111110 !
b10001111110 +
b110001111110 )
b110001111110 H
b110001111110 I
1#
#1000
0#
0&
#1005
0B
09
1#
#1010
0#
#1015
0:
0C
1#
#1020
0#
#1025
1B
19
1#
1&
#1030
0#
#1035
b110011001 ,
b110011001 G
1:
1C
b10000110010001110000000000 >
b110101110 =
b10000000001011001000000000 A
b110011001 -
b110011001 ?
b110011001 @
1#
#1040
0#
#1045
b10010110001 !
b10010110001 +
b110010110001 )
b110010110001 H
b110010110001 I
1#
#1050
0#
0&
#1055
09
0B
1#
#1060
0#
#1065
0C
0:
1#
#1070
0#
#1075
19
1B
1#
1&
#1080
0#
#1085
b110101110 ,
b110101110 G
b110101110 -
b110101110 ?
b110101110 @
b10001100011000011000000000 >
b111000010 =
b10000110010001110000000000 A
1C
1:
1#
#1090
0#
#1095
b10011100110 !
b10011100110 +
b110011100110 )
b110011100110 H
b110011100110 I
1#
#1100
0#
0&
#1105
0B
09
1#
#1110
0#
#1115
0:
0C
1#
#1120
0#
#1125
1B
19
1#
1&
#1130
0#
#1135
b111000010 ,
b111000010 G
1:
1C
b10010010011111000000000000 >
b111010111 =
b10001100011000011000000000 A
b111000010 -
b111000010 ?
b111000010 @
1#
#1140
0#
#1145
b10100010111 !
b10100010111 +
b110100010111 )
b110100010111 H
b110100010111 I
1#
#1150
0#
0&
#1155
09
0B
1#
#1160
0#
#1165
0C
0:
1#
#1170
0#
#1175
19
1B
1#
1&
#1180
0#
#1185
b111010111 ,
b111010111 G
b111010111 -
b111010111 ?
b111010111 @
b10011000100101101000000000 >
b111101011 =
b10010010011111000000000000 A
1C
1:
1#
#1190
0#
#1195
b10101001001 !
b10101001001 +
b110101001001 )
b110101001001 H
b110101001001 I
1#
#1200
0#
0&
#1205
0B
09
1#
#1210
0#
#1215
0:
0C
1#
#1220
0#
#1225
1B
19
1#
1&
#1230
0#
#1235
b111101011 ,
b111101011 G
1:
1C
b10011110101100010000000000 >
b1000000000 =
b10011000100101101000000000 A
b111101011 -
b111101011 ?
b111101011 @
1#
#1240
0#
#1245
b10101111000 !
b10101111000 +
b110101111000 )
b110101111000 H
b110101111000 I
1#
#1250
0#
0&
#1255
09
0B
1#
#1260
0#
#1265
0C
0:
1#
#1270
0#
#1275
19
1B
1#
1&
#1280
0#
#1285
b1000000000 ,
b1000000000 G
b1000000000 -
b1000000000 ?
b1000000000 @
b10100100110010111000000000 >
b1000010100 =
b10011110101100010000000000 A
1C
1:
1#
#1290
0#
#1295
b10110100111 !
b10110100111 +
b110110100111 )
b110110100111 H
b110110100111 I
1#
#1300
0#
0&
#1305
0B
09
1#
#1310
0#
#1315
0:
0C
1#
#1320
0#
#1325
1B
19
1#
1&
#1330
0#
#1335
b1000010100 ,
b1000010100 G
1:
1C
b10101010111001100000000000 >
b1000101000 =
b10100100110010111000000000 A
b1000010100 -
b1000010100 ?
b1000010100 @
1#
#1340
0#
#1345
b10111010011 !
b10111010011 +
b110111010011 )
b110111010011 H
b110111010011 I
1#
#1350
0#
0&
#1355
09
0B
1#
#1360
0#
#1365
0C
0:
1#
#1370
0#
#1375
19
1B
1#
1&
#1380
0#
#1385
b1000101000 ,
b1000101000 G
b1000101000 -
b1000101000 ?
b1000101000 @
b10110001000000001000000000 >
b1000111101 =
b10101010111001100000000000 A
1C
1:
1#
#1390
0#
#1395
b10111111101 !
b10111111101 +
b110111111101 )
b110111111101 H
b110111111101 I
1#
#1400
0#
0&
#1405
0B
09
1#
#1410
0#
#1415
0:
0C
1#
#1420
0#
#1425
1B
19
1#
1&
#1430
0#
#1435
b1000111101 ,
b1000111101 G
1:
1C
b10110111000110110000000000 >
b1001010001 =
b10110001000000001000000000 A
b1000111101 -
b1000111101 ?
b1000111101 @
1#
#1440
0#
#1445
b11000101000 !
b11000101000 +
b111000101000 )
b111000101000 H
b111000101000 I
1#
#1450
0#
0&
#1455
09
0B
1#
#1460
0#
#1465
0C
0:
1#
#1470
0#
#1475
19
1B
1#
1&
#1480
0#
#1485
b1001010001 ,
b1001010001 G
b1001010001 -
b1001010001 ?
b1001010001 @
b10111101001101011000000000 >
b1001100110 =
b10110111000110110000000000 A
1C
1:
1#
#1490
0#
#1495
b11001001111 !
b11001001111 +
b111001001111 )
b111001001111 H
b111001001111 I
1#
#1500
0#
0&
#1505
0B
09
1#
#1510
0#
#1515
0:
0C
1#
#1520
0#
#1525
1B
19
1#
1&
#1530
0#
#1535
b1001100110 ,
b1001100110 G
1:
1C
b11000011010100000000000000 >
b1001111010 =
b10111101001101011000000000 A
b1001100110 -
b1001100110 ?
b1001100110 @
1#
#1540
0#
#1545
b11001110111 !
b11001110111 +
b111001110111 )
b111001110111 H
b111001110111 I
1#
#1550
0#
0&
#1555
09
0B
1#
#1560
0#
#1565
0C
0:
1#
#1570
0#
#1575
19
1B
1#
1&
#1580
0#
#1585
b1001111010 ,
b1001111010 G
b1001111010 -
b1001111010 ?
b1001111010 @
b11001001011010101000000000 >
b1010001111 =
b11000011010100000000000000 A
1C
1:
1#
#1590
0#
#1595
b11010011011 !
b11010011011 +
b111010011011 )
b111010011011 H
b111010011011 I
1#
#1600
0#
0&
#1605
0B
09
1#
#1610
0#
#1615
0:
0C
1#
#1620
0#
#1625
1B
19
1#
1&
#1630
0#
#1635
b1010001111 ,
b1010001111 G
1:
1C
b11001111100001010000000000 >
b1010100011 =
b11001001011010101000000000 A
b1010001111 -
b1010001111 ?
b1010001111 @
1#
#1640
0#
#1645
b11010111111 !
b11010111111 +
b111010111111 )
b111010111111 H
b111010111111 I
1#
#1650
0#
0&
#1655
09
0B
1#
#1660
0#
#1665
0C
0:
1#
#1670
0#
#1675
19
1B
1#
1&
#1680
0#
#1685
b1010100011 ,
b1010100011 G
b1010100011 -
b1010100011 ?
b1010100011 @
b11010101100111111000000000 >
b1010111000 =
b11001111100001010000000000 A
1C
1:
1#
#1690
0#
#1695
b11011100000 !
b11011100000 +
b111011100000 )
b111011100000 H
b111011100000 I
1#
#1700
0#
0&
#1705
0B
09
1#
#1710
0#
#1715
0:
0C
1#
#1720
0#
#1725
1B
19
1#
1&
#1730
0#
#1735
b1010111000 ,
b1010111000 G
1:
1C
b11011011101110100000000000 >
b1011001100 =
b11010101100111111000000000 A
b1010111000 -
b1010111000 ?
b1010111000 @
1#
#1740
0#
#1745
b11100000001 !
b11100000001 +
b111100000001 )
b111100000001 H
b111100000001 I
1#
#1750
0#
0&
#1755
09
0B
1#
#1760
0#
#1765
0C
0:
1#
#1770
0#
#1775
19
1B
1#
1&
#1780
0#
#1785
b1011001100 ,
b1011001100 G
b1011001100 -
b1011001100 ?
b1011001100 @
b11100001110101001000000000 >
b1011100001 =
b11011011101110100000000000 A
1C
1:
1#
#1790
0#
#1795
b11100011110 !
b11100011110 +
b111100011110 )
b111100011110 H
b111100011110 I
1#
#1800
0#
0&
#1805
0B
09
1#
#1810
0#
#1815
0:
0C
1#
#1820
0#
#1825
1B
19
1#
1&
#1830
0#
#1835
b1011100001 ,
b1011100001 G
1:
1C
b11100111111011110000000000 >
b1011110101 =
b11100001110101001000000000 A
b1011100001 -
b1011100001 ?
b1011100001 @
1#
#1840
0#
#1845
b11100111011 !
b11100111011 +
b111100111011 )
b111100111011 H
b111100111011 I
1#
#1850
0#
0&
#1855
09
0B
1#
#1860
0#
#1865
0C
0:
1#
#1870
0#
#1875
19
1B
1#
1&
#1880
0#
#1885
b1011110101 ,
b1011110101 G
b1011110101 -
b1011110101 ?
b1011110101 @
b11101110000010011000000000 >
b1100001010 =
b11100111111011110000000000 A
1C
1:
1#
#1890
0#
#1895
b11101010101 !
b11101010101 +
b111101010101 )
b111101010101 H
b111101010101 I
1#
#1900
0#
0&
#1905
0B
09
1#
#1910
0#
#1915
0:
0C
1#
#1920
0#
#1925
1B
19
1#
1&
#1930
0#
#1935
b1100001010 ,
b1100001010 G
1:
1C
b11110100001001000000000000 >
b1100011110 =
b11101110000010011000000000 A
b1100001010 -
b1100001010 ?
b1100001010 @
1#
#1940
0#
#1945
b11101101110 !
b11101101110 +
b111101101110 )
b111101101110 H
b111101101110 I
1#
#1950
0#
0&
#1955
09
0B
1#
#1960
0#
#1965
0C
0:
1#
#1970
0#
#1975
19
1B
1#
1&
#1980
0#
#1985
b1100011110 ,
b1100011110 G
b1100011110 -
b1100011110 ?
b1100011110 @
b11111010001111101000000000 >
b1100110011 =
b11110100001001000000000000 A
1C
1:
1#
#1990
0#
#1995
b11110000101 !
b11110000101 +
b111110000101 )
b111110000101 H
b111110000101 I
1#
#2000
0#
0&
#2005
0B
09
1#
#2010
0#
#2015
0:
0C
1#
#2020
0#
#2025
1B
19
1#
1&
#2030
0#
#2035
b1100110011 ,
b1100110011 G
1:
1C
b100000000010110010000000000 >
b1101000111 =
b11111010001111101000000000 A
b1100110011 -
b1100110011 ?
b1100110011 @
1#
#2040
0#
#2045
b11110011010 !
b11110011010 +
b111110011010 )
b111110011010 H
b111110011010 I
1#
#2050
0#
0&
#2055
09
0B
1#
#2060
0#
#2065
0C
0:
1#
#2070
0#
#2075
19
1B
1#
1&
#2080
0#
#2085
b1101000111 ,
b1101000111 G
b1101000111 -
b1101000111 ?
b1101000111 @
b100000110011100111000000000 >
b1101011100 =
b100000000010110010000000000 A
1C
1:
1#
#2090
0#
#2095
b11110101101 !
b11110101101 +
b111110101101 )
b111110101101 H
b111110101101 I
1#
#2100
0#
0&
#2105
0B
09
1#
#2110
0#
#2115
0:
0C
1#
#2120
0#
#2125
1B
19
1#
1&
#2130
0#
#2135
b1101011100 ,
b1101011100 G
1:
1C
b100001100100011100000000000 >
b1101110000 =
b100000110011100111000000000 A
b1101011100 -
b1101011100 ?
b1101011100 @
1#
#2140
0#
#2145
b11110111110 !
b11110111110 +
b111110111110 )
b111110111110 H
b111110111110 I
1#
#2150
0#
0&
#2155
09
0B
1#
#2160
0#
#2165
0C
0:
1#
#2170
0#
#2175
19
1B
1#
1&
#2180
0#
#2185
b1101110000 ,
b1101110000 G
b1101110000 -
b1101110000 ?
b1101110000 @
b100010010101010001000000000 >
b1110000101 =
b100001100100011100000000000 A
1C
1:
1#
#2190
0#
#2195
b11111001101 !
b11111001101 +
b111111001101 )
b111111001101 H
b111111001101 I
1#
#2200
0#
0&
#2205
0B
09
1#
#2210
0#
#2215
0:
0C
1#
#2220
0#
#2225
1B
19
1#
1&
#2230
0#
#2235
b1110000101 ,
b1110000101 G
1:
1C
b100011000110000110000000000 >
b1110011001 =
b100010010101010001000000000 A
b1110000101 -
b1110000101 ?
b1110000101 @
1#
#2240
0#
#2245
b11111011010 !
b11111011010 +
b111111011010 )
b111111011010 H
b111111011010 I
1#
#2250
0#
0&
#2255
09
0B
1#
#2260
0#
#2265
0C
0:
1#
#2270
0#
#2275
19
1B
1#
1&
#2280
0#
#2285
b1110011001 ,
b1110011001 G
b1110011001 -
b1110011001 ?
b1110011001 @
b100011110110111011000000000 >
b1110101110 =
b100011000110000110000000000 A
1C
1:
1#
#2290
0#
#2295
b11111100101 !
b11111100101 +
b111111100101 )
b111111100101 H
b111111100101 I
1#
#2300
0#
0&
#2305
0B
09
1#
#2310
0#
#2315
0:
0C
1#
#2320
0#
#2325
1B
19
1#
1&
#2330
0#
#2335
b1110101110 ,
b1110101110 G
1:
1C
b100100100111110000000000000 >
b1111000010 =
b100011110110111011000000000 A
b1110101110 -
b1110101110 ?
b1110101110 @
1#
#2340
0#
#2345
b11111101110 !
b11111101110 +
b111111101110 )
b111111101110 H
b111111101110 I
1#
#2350
0#
0&
#2355
09
0B
1#
#2360
0#
#2365
0C
0:
1#
#2370
0#
#2375
19
1B
1#
1&
#2380
0#
#2385
b1111000010 ,
b1111000010 G
b1111000010 -
b1111000010 ?
b1111000010 @
b100101011000100101000000000 >
b1111010111 =
b100100100111110000000000000 A
1C
1:
1#
#2390
0#
#2395
b11111110101 !
b11111110101 +
b111111110101 )
b111111110101 H
b111111110101 I
1#
#2400
0#
0&
#2405
0B
09
1#
#2410
0#
#2415
0:
0C
1#
#2420
0#
#2425
1B
19
1#
1&
#2430
0#
#2435
b1111010111 ,
b1111010111 G
1:
1C
b100110001001011010000000000 >
b1111101011 =
b100101011000100101000000000 A
b1111010111 -
b1111010111 ?
b1111010111 @
1#
#2440
0#
#2445
b11111111010 !
b11111111010 +
b111111111010 )
b111111111010 H
b111111111010 I
1#
#2450
0#
0&
#2455
09
0B
1#
#2460
0#
#2465
0C
0:
1#
#2470
0#
#2475
19
1B
1#
1&
#2480
0#
#2485
b1111101011 ,
b1111101011 G
b1111101011 -
b1111101011 ?
b1111101011 @
b100110111010001111000000000 >
b10000000000 =
b100110001001011010000000000 A
1C
1:
1#
#2490
0#
#2495
b11111111101 !
b11111111101 +
b111111111101 )
b111111111101 H
b111111111101 I
1#
#2500
0#
0&
#2505
0B
09
1#
#2510
0#
#2515
0:
0C
1#
#2520
0#
#2525
1B
19
1#
1&
#2530
0#
#2535
b10000000000 ,
b10000000000 G
1:
1C
b100111101011000100000000000 >
b10000010100 =
b100110111010001111000000000 A
b10000000000 -
b10000000000 ?
b10000000000 @
1#
#2540
0#
#2545
b11111111111 !
b11111111111 +
b111111111111 )
b111111111111 H
b111111111111 I
1#
#2550
0#
0&
#2555
09
0B
1#
#2560
0#
#2565
0C
0:
1#
#2570
0#
#2575
19
1B
1#
1&
#2580
0#
#2585
b10000010100 ,
b10000010100 G
b10000010100 -
b10000010100 ?
b10000010100 @
b101000011011111001000000000 >
b10000101000 =
b100111101011000100000000000 A
1C
1:
1#
#2590
0#
#2595
b11111111110 !
b11111111110 +
b111111111110 )
b111111111110 H
b111111111110 I
1#
#2600
0#
0&
#2605
0B
09
1#
#2610
0#
#2615
0:
0C
1#
#2620
0#
#2625
1B
19
1#
1&
#2630
0#
#2635
b10000101000 ,
b10000101000 G
1:
1C
b101001001100101110000000000 >
b10000111101 =
b101000011011111001000000000 A
b10000101000 -
b10000101000 ?
b10000101000 @
1#
#2640
0#
#2645
b11111111011 !
b11111111011 +
b111111111011 )
b111111111011 H
b111111111011 I
1#
#2650
0#
0&
#2655
09
0B
1#
#2660
0#
#2665
0C
0:
1#
#2670
0#
#2675
19
1B
1#
1&
#2680
0#
#2685
b10000111101 ,
b10000111101 G
b10000111101 -
b10000111101 ?
b10000111101 @
b101001111101100011000000000 >
b10001010001 =
b101001001100101110000000000 A
1C
1:
1#
#2690
0#
#2695
b11111110110 !
b11111110110 +
b111111110110 )
b111111110110 H
b111111110110 I
1#
#2700
0#
0&
#2705
0B
09
1#
#2710
0#
#2715
0:
0C
1#
#2720
0#
#2725
1B
19
1#
1&
#2730
0#
#2735
b10001010001 ,
b10001010001 G
1:
1C
b101010101110011000000000000 >
b10001100110 =
b101001111101100011000000000 A
b10001010001 -
b10001010001 ?
b10001010001 @
1#
#2740
0#
#2745
b11111101111 !
b11111101111 +
b111111101111 )
b111111101111 H
b111111101111 I
1#
#2750
0#
0&
#2755
09
0B
1#
#2760
0#
#2765
0C
0:
1#
#2770
0#
#2775
19
1B
1#
1&
#2780
0#
#2785
b10001100110 ,
b10001100110 G
b10001100110 -
b10001100110 ?
b10001100110 @
b101011011111001101000000000 >
b10001111010 =
b101010101110011000000000000 A
1C
1:
1#
#2790
0#
#2795
b11111100101 !
b11111100101 +
b111111100101 )
b111111100101 H
b111111100101 I
1#
#2800
0#
0&
#2805
0B
09
1#
#2810
0#
#2815
0:
0C
1#
#2820
0#
#2825
1B
19
1#
1&
#2830
0#
#2835
b10001111010 ,
b10001111010 G
1:
1C
b101100010000000010000000000 >
b10010001111 =
b101011011111001101000000000 A
b10001111010 -
b10001111010 ?
b10001111010 @
1#
#2840
0#
#2845
b11111011011 !
b11111011011 +
b111111011011 )
b111111011011 H
b111111011011 I
1#
#2850
0#
0&
#2855
09
0B
1#
#2860
0#
#2865
0C
0:
1#
#2870
0#
#2875
19
1B
1#
1&
#2880
0#
#2885
b10010001111 ,
b10010001111 G
b10010001111 -
b10010001111 ?
b10010001111 @
b101101000000110111000000000 >
b10010100011 =
b101100010000000010000000000 A
1C
1:
1#
#2890
0#
#2895
b11111001101 !
b11111001101 +
b111111001101 )
b111111001101 H
b111111001101 I
1#
#2900
0#
0&
#2905
0B
09
1#
#2910
0#
#2915
0:
0C
1#
#2920
0#
#2925
1B
19
1#
1&
#2930
0#
#2935
b10010100011 ,
b10010100011 G
1:
1C
b101101110001101100000000000 >
b10010111000 =
b101101000000110111000000000 A
b10010100011 -
b10010100011 ?
b10010100011 @
1#
#2940
0#
#2945
b11110111111 !
b11110111111 +
b111110111111 )
b111110111111 H
b111110111111 I
1#
#2950
0#
0&
#2955
09
0B
1#
#2960
0#
#2965
0C
0:
1#
#2970
0#
#2975
19
1B
1#
1&
#2980
0#
#2985
b10010111000 ,
b10010111000 G
b10010111000 -
b10010111000 ?
b10010111000 @
b101110100010100001000000000 >
b10011001100 =
b101101110001101100000000000 A
1C
1:
1#
#2990
0#
#2995
b11110101110 !
b11110101110 +
b111110101110 )
b111110101110 H
b111110101110 I
1#
#3000
0#
0&
#3005
0B
09
1#
#3010
0#
#3015
0:
0C
1#
#3020
0#
#3025
1B
19
1#
1&
#3030
0#
#3035
b10011001100 ,
b10011001100 G
1:
1C
b101111010011010110000000000 >
b10011100001 =
b101110100010100001000000000 A
b10011001100 -
b10011001100 ?
b10011001100 @
1#
#3040
0#
#3045
b11110011011 !
b11110011011 +
b111110011011 )
b111110011011 H
b111110011011 I
1#
#3050
0#
0&
#3055
09
0B
1#
#3060
0#
#3065
0C
0:
1#
#3070
0#
#3075
19
1B
1#
1&
#3080
0#
#3085
b10011100001 ,
b10011100001 G
b10011100001 -
b10011100001 ?
b10011100001 @
b110000000100001011000000000 >
b10011110101 =
b101111010011010110000000000 A
1C
1:
1#
#3090
0#
#3095
b11110000110 !
b11110000110 +
b111110000110 )
b111110000110 H
b111110000110 I
1#
#3100
0#
0&
#3105
0B
09
1#
#3110
0#
#3115
0:
0C
1#
#3120
0#
#3125
1B
19
1#
1&
#3130
0#
#3135
b10011110101 ,
b10011110101 G
1:
1C
b110000110101000000000000000 >
b10100001010 =
b110000000100001011000000000 A
b10011110101 -
b10011110101 ?
b10011110101 @
1#
#3140
0#
#3145
b11101110000 !
b11101110000 +
b111101110000 )
b111101110000 H
b111101110000 I
1#
#3150
0#
0&
#3155
09
0B
1#
#3160
0#
#3165
0C
0:
1#
#3170
0#
#3175
19
1B
1#
1&
#3180
0#
#3185
b10100001010 ,
b10100001010 G
b10100001010 -
b10100001010 ?
b10100001010 @
b110001100101110101000000000 >
b10100011110 =
b110000110101000000000000000 A
1C
1:
1#
#3190
0#
#3195
b11101010110 !
b11101010110 +
b111101010110 )
b111101010110 H
b111101010110 I
1#
#3200
0#
0&
#3205
0B
09
1#
#3210
0#
#3215
0:
0C
1#
#3220
0#
#3225
1B
19
1#
1&
#3230
0#
