func_gen/func_gen.vcd
$date
	Sat Sep 30 19:56:16 2023
$end
$version
	Icarus Verilog
$end
$timescale
	1ps
$end
$scope module tb_func_gen $end
$var wire 12 ! wave [11:0] $end
$var reg 1 " a_set $end
$var reg 1 # clk $end
$var reg 20 $ f_set [19:0] $end
$var reg 1 % rst $end
$var reg 1 & s_clk $end
$var reg 1 ' w_set $end
$scope module func_gen $end
$var wire 1 " a_set $end
$var wire 1 # clk $end
$var wire 20 ( f_set [19:0] $end
$var wire 1 % rst $end
$var wire 1 & s_clk $end
$var wire 1 ' w_set $end
$var wire 12 ) wave_2V [11:0] $end
$var wire 12 * wave_1V [11:0] $end
$var wire 12 + wave [11:0] $end
$var wire 12 , addr12_w_i [11:0] $end
$var wire 12 - addr12_w [11:0] $end
$var wire 1 . addr12_gen_en $end
$var wire 11 / addr11_w_i [10:0] $end
$var wire 11 0 addr11_w [10:0] $end
$var wire 1 1 addr11_gen_en $end
$scope module addr11_gen $end
$var wire 1 # clk $end
$var wire 1 1 en $end
$var wire 20 2 f_set [19:0] $end
$var wire 1 % rst $end
$var wire 1 & s_clk $end
$var wire 24 3 f_din [23:0] $end
$var wire 29 4 cnt_in [28:0] $end
$var wire 29 5 cnt_df [28:0] $end
$var wire 11 6 addr [10:0] $end
$var reg 11 7 addr_r [10:0] $end
$var reg 29 8 cnt_bas [28:0] $end
$var reg 1 9 pl0 $end
$var reg 1 : pl1 $end
$upscope $end
$scope module addr12_gen $end
$var wire 1 # clk $end
$var wire 1 . en $end
$var wire 20 ; f_set [19:0] $end
$var wire 1 % rst $end
$var wire 1 & s_clk $end
$var wire 24 < f_din [23:0] $end
$var wire 29 = cnt_in [28:0] $end
$var wire 29 > cnt_df [28:0] $end
$var wire 12 ? addr [11:0] $end
$var reg 12 @ addr_r [11:0] $end
$var reg 29 A cnt_bas [28:0] $end
$var reg 1 B pl0 $end
$var reg 1 C pl1 $end
$upscope $end
$scope module usin11_rom $end
$var wire 11 D addr [10:0] $end
$var wire 1 # clk $end
$var wire 1 % rst $end
$var wire 12 E dout [11:0] $end
$var reg 11 F dout_r [10:0] $end
$upscope $end
$scope module usin12_rom $end
$var wire 12 G addr [11:0] $end
$var wire 1 # clk $end
$var wire 1 % rst $end
$var wire 12 H dout [11:0] $end
$var reg 12 I dout_r [11:0] $end
$upscope $end
$upscope $end
$upscope $end
$enddefinitions $end
#0
$dumpvars
bx I
bx H
bx G
bx F
b0xxxxxxxxxxx E
bx D
xC
xB
bx A
bx @
bx ?
bx >
bx =
b110000110101000000000 <
b11000011010100000 ;
x:
x9
bx 8
bx 7
bx 6
bx 5
bx 4
b11000011010100000000 3
b11000011010100000 2
01
bx 0
bx /
1.
bx -
bx ,
bx +
b0xxxxxxxxxxx *
bx )
b11000011010100000 (
0'
0&
1%
b11000011010100000 $
0#
1"
bx !
$end
#5000
09
0B
1#
#10000
b100000000000 !
b100000000000 +
b0 ,
b0 G
b0 /
b0 D
b0 )
b0 H
b0 I
b0 *
b0 E
b0 F
b0 -
b0 ?
b0 @
b110000110101000000000 >
b0 =
b0 A
0C
b0 0
b0 6
b0 7
b11000011010100000000 5
b0 4
b0 8
0:
0#
0%
#15000
1#
#20000
0#
1%
#25000
b0 !
b0 +
b100000000000 )
b100000000000 H
b100000000000 I
b10000000000 *
b10000000000 E
b10000000000 F
1B
19
1#
1&
#30000
0#
#35000
1:
1C
b1100001101010000000000 >
b10100 =
b110000110101000000000 A
1#
#40000
0#
#45000
1#
#50000
0#
0&
#55000
09
0B
1#
#60000
0#
#65000
0C
0:
1#
#70000
0#
#75000
19
1B
1#
1&
#80000
0#
#85000
b10100 ,
b10100 G
b10100 -
b10100 ?
b10100 @
b10010010011111000000000 >
b101000 =
b1100001101010000000000 A
1C
1:
1#
#90000
0#
#95000
b111110 !
b111110 +
b100000111110 )
b100000111110 H
b100000111110 I
1#
#100000
0#
0&
#105000
0B
09
1#
#110000
0#
#115000
0:
0C
1#
#120000
0#
#125000
1B
19
1#
1&
#130000
0#
#135000
b101000 ,
b101000 G
1:
1C
b11000011010100000000000 >
b111101 =
b10010010011111000000000 A
b101000 -
b101000 ?
b101000 @
1#
#140000
0#
#145000
b1111101 !
b1111101 +
b100001111101 )
b100001111101 H
b100001111101 I
1#
#150000
0#
0&
#155000
09
0B
1#
#160000
0#
#165000
0C
0:
1#
#170000
0#
#175000
19
1B
1#
1&
#180000
0#
#185000
b111101 ,
b111101 G
b111101 -
b111101 ?
b111101 @
b11110100001001000000000 >
b1010001 =
b11000011010100000000000 A
1C
1:
1#
#190000
0#
#195000
b10111111 !
b10111111 +
b100010111111 )
b100010111111 H
b100010111111 I
1#
#200000
0#
0&
#205000
0B
09
1#
#210000
0#
#215000
0:
0C
1#
#220000
0#
#225000
1B
19
1#
1&
#230000
0#
#235000
b1010001 ,
b1010001 G
1:
1C
b100100100111110000000000 >
b1100110 =
b11110100001001000000000 A
b1010001 -
b1010001 ?
b1010001 @
1#
#240000
0#
#245000
b11111101 !
b11111101 +
b100011111101 )
b100011111101 H
b100011111101 I
1#
#250000
0#
0&
#255000
09
0B
1#
#260000
0#
#265000
0C
0:
1#
#270000
0#
#275000
19
1B
1#
1&
#280000
0#
#285000
b1100110 ,
b1100110 G
b1100110 -
b1100110 ?
b1100110 @
b101010101110011000000000 >
b1111010 =
b100100100111110000000000 A
1C
1:
1#
#290000
0#
#295000
b100111110 !
b100111110 +
b100100111110 )
b100100111110 H
b100100111110 I
1#
#300000
0#
0&
#305000
0B
09
1#
#310000
0#
#315000
0:
0C
1#
#320000
0#
#325000
1B
19
1#
1&
#330000
0#
#335000
b1111010 ,
b1111010 G
1:
1C
b110000110101000000000000 >
b10001111 =
b101010101110011000000000 A
b1111010 -
b1111010 ?
b1111010 @
1#
#340000
0#
#345000
b101111100 !
b101111100 +
b100101111100 )
b100101111100 H
b100101111100 I
1#
#350000
0#
0&
#355000
09
0B
1#
#360000
0#
#365000
0C
0:
1#
#370000
0#
#375000
19
1B
1#
1&
#380000
0#
#385000
b10001111 ,
b10001111 G
b10001111 -
b10001111 ?
b10001111 @
b110110111011101000000000 >
b10100011 =
b110000110101000000000000 A
1C
1:
1#
#390000
0#
#395000
b110111101 !
b110111101 +
b100110111101 )
b100110111101 H
b100110111101 I
1#
#400000
0#
0&
#405000
0B
09
1#
#410000
0#
#415000
0:
0C
1#
#420000
0#
#425000
1B
19
1#
1&
#430000
0#
#435000
b10100011 ,
b10100011 G
1:
1C
b111101000010010000000000 >
b10111000 =
b110110111011101000000000 A
b10100011 -
b10100011 ?
b10100011 @
1#
#440000
0#
#445000
b111111010 !
b111111010 +
b100111111010 )
b100111111010 H
b100111111010 I
1#
#450000
0#
0&
#455000
09
0B
1#
#460000
0#
#465000
0C
0:
1#
#470000
0#
#475000
19
1B
1#
1&
#480000
0#
#485000
b10111000 ,
b10111000 G
b10111000 -
b10111000 ?
b10111000 @
b1000011001000111000000000 >
b11001100 =
b111101000010010000000000 A
1C
1:
1#
#490000
0#
#495000
b1000111010 !
b1000111010 +
b101000111010 )
b101000111010 H
b101000111010 I
1#
#500000
0#
0&
#505000
0B
09
1#
#510000
0#
#515000
0:
0C
1#
#520000
0#
#525000
1B
19
1#
1&
#530000
0#
#535000
b11001100 ,
b11001100 G
1:
1C
b1001001001111100000000000 >
b11100001 =
b1000011001000111000000000 A
b11001100 -
b11001100 ?
b11001100 @
1#
#540000
0#
#545000
b1001110110 !
b1001110110 +
b101001110110 )
b101001110110 H
b101001110110 I
1#
#550000
0#
0&
#555000
09
0B
1#
#560000
0#
#565000
0C
0:
1#
#570000
0#
#575000
19
1B
1#
1&
#580000
0#
#585000
b11100001 ,
b11100001 G
b11100001 -
b11100001 ?
b11100001 @
b1001111010110001000000000 >
b11110101 =
b1001001001111100000000000 A
1C
1:
1#
#590000
0#
#595000
b1010110100 !
b1010110100 +
b101010110100 )
b101010110100 H
b101010110100 I
1#
#600000
0#
0&
#605000
0B
09
1#
#610000
0#
#615000
0:
0C
1#
#620000
0#
#625000
1B
19
1#
1&
#630000
0#
#635000
b11110101 ,
b11110101 G
1:
1C
b1010101011100110000000000 >
b100001010 =
b1001111010110001000000000 A
b11110101 -
b11110101 ?
b11110101 @
1#
#640000
0#
#645000
b1011101111 !
b1011101111 +
b101011101111 )
b101011101111 H
b101011101111 I
1#
#650000
0#
0&
#655000
09
0B
1#
#660000
0#
#665000
0C
0:
1#
#670000
0#
#675000
19
1B
1#
1&
#680000
0#
#685000
b100001010 ,
b100001010 G
b100001010 -
b100001010 ?
b100001010 @
b1011011100011011000000000 >
b100011110 =
b1010101011100110000000000 A
1C
1:
1#
#690000
0#
#695000
b1100101100 !
b1100101100 +
b101100101100 )
b101100101100 H
b101100101100 I
1#
#700000
0#
0&
#705000
0B
09
1#
#710000
0#
#715000
0:
0C
1#
#720000
0#
#725000
1B
19
1#
1&
#730000
0#
#735000
b100011110 ,
b100011110 G
1:
1C
b1100001101010000000000000 >
b100110011 =
b1011011100011011000000000 A
b100011110 -
b100011110 ?
b100011110 @
1#
#740000
0#
#745000
b1101100101 !
b1101100101 +
b101101100101 )
b101101100101 H
b101101100101 I
1#
#750000
0#
0&
#755000
09
0B
1#
#760000
0#
#765000
0C
0:
1#
#770000
0#
#775000
19
1B
1#
1&
#780000
0#
#785000
b100110011 ,
b100110011 G
b100110011 -
b100110011 ?
b100110011 @
b1100111110000101000000000 >
b101000111 =
b1100001101010000000000000 A
1C
1:
1#
#790000
0#
#795000
b1110100000 !
b1110100000 +
b101110100000 )
b101110100000 H
b101110100000 I
1#
#800000
0#
0&
#805000
0B
09
1#
#810000
0#
#815000
0:
0C
1#
#820000
0#
#825000
1B
19
1#
1&
#830000
0#
#835000
b101000111 ,
b101000111 G
1:
1C
b1101101110111010000000000 >
b101011100 =
b1100111110000101000000000 A
b101000111 -
b101000111 ?
b101000111 @
1#
#840000
0#
#845000
b1111011000 !
b1111011000 +
b101111011000 )
b101111011000 H
b101111011000 I
1#
#850000
0#
0&
#855000
09
0B
1#
#860000
0#
#865000
0C
0:
1#
#870000
0#
#875000
19
1B
1#
1&
#880000
0#
#885000
b101011100 ,
b101011100 G
b101011100 -
b101011100 ?
b101011100 @
b1110011111101111000000000 >
b101110000 =
b1101101110111010000000000 A
1C
1:
1#
#890000
0#
#895000
b10000010001 !
b10000010001 +
b110000010001 )
b110000010001 H
b110000010001 I
1#
#900000
0#
0&
#905000
0B
09
1#
#910000
0#
#915000
0:
0C
1#
#920000
0#
#925000
1B
19
1#
1&
#930000
0#
#935000
b101110000 ,
b101110000 G
1:
1C
b1111010000100100000000000 >
b110000101 =
b1110011111101111000000000 A
b101110000 -
b101110000 ?
b101110000 @
1#
#940000
0#
#945000
b10001000111 !
b10001000111 +
b110001000111 )
b110001000111 H
b110001000111 I
1#
#950000
0#
0&
#955000
09
0B
1#
#960000
0#
#965000
0C
0:
1#
#970000
0#
#975000
19
1B
1#
1&
#980000
0#
#985000
b110000101 ,
b110000101 G
b110000101 -
b110000101 ?
b110000101 @
b10000000001011001000000000 >
b110011001 =
b1111010000100100000000000 A
1C
1:
1#
#990000
0#
#995000
b10001111110 !
b10001111110 +
b110001111110 )
b110001111110 H
b110001111110 I
1#
#1000000
0#
0&
#1005000
0B
09
1#
#1010000
0#
#1015000
0:
0C
1#
#1020000
0#
#1025000
1B
19
1#
1&
#1030000
0#
#1035000
b110011001 ,
b110011001 G
1:
1C
b10000110010001110000000000 >
b110101110 =
b10000000001011001000000000 A
b110011001 -
b110011001 ?
b110011001 @
1#
#1040000
0#
#1045000
b10010110001 !
b10010110001 +
b110010110001 )
b110010110001 H
b110010110001 I
1#
#1050000
0#
0&
#1055000
09
0B
1#
#1060000
0#
#1065000
0C
0:
1#
#1070000
0#
#1075000
19
1B
1#
1&
#1080000
0#
#1085000
b110101110 ,
b110101110 G
b110101110 -
b110101110 ?
b110101110 @
b10001100011000011000000000 >
b111000010 =
b10000110010001110000000000 A
1C
1:
1#
#1090000
0#
#1095000
b10011100110 !
b10011100110 +
b110011100110 )
b110011100110 H
b110011100110 I
1#
#1100000
0#
0&
#1105000
0B
09
1#
#1110000
0#
#1115000
0:
0C
1#
#1120000
0#
#1125000
1B
19
1#
1&
#1130000
0#
#1135000
b111000010 ,
b111000010 G
1:
1C
b10010010011111000000000000 >
b111010111 =
b10001100011000011000000000 A
b111000010 -
b111000010 ?
b111000010 @
1#
#1140000
0#
#1145000
b10100010111 !
b10100010111 +
b110100010111 )
b110100010111 H
b110100010111 I
1#
#1150000
0#
0&
#1155000
09
0B
1#
#1160000
0#
#1165000
0C
0:
1#
#1170000
0#
#1175000
19
1B
1#
1&
#1180000
0#
#1185000
b111010111 ,
b111010111 G
b111010111 -
b111010111 ?
b111010111 @
b10011000100101101000000000 >
b111101011 =
b10010010011111000000000000 A
1C
1:
1#
#1190000
0#
#1195000
b10101001001 !
b10101001001 +
b110101001001 )
b110101001001 H
b110101001001 I
1#
#1200000
0#
0&
#1205000
0B
09
1#
#1210000
0#
#1215000
0:
0C
1#
#1220000
0#
#1225000
1B
19
1#
1&
#1230000
0#
#1235000
b111101011 ,
b111101011 G
1:
1C
b10011110101100010000000000 >
b1000000000 =
b10011000100101101000000000 A
b111101011 -
b111101011 ?
b111101011 @
1#
#1240000
0#
#1245000
b10101111000 !
b10101111000 +
b110101111000 )
b110101111000 H
b110101111000 I
1#
#1250000
0#
0&
#1255000
09
0B
1#
#1260000
0#
#1265000
0C
0:
1#
#1270000
0#
#1275000
19
1B
1#
1&
#1280000
0#
#1285000
b1000000000 ,
b1000000000 G
b1000000000 -
b1000000000 ?
b1000000000 @
b10100100110010111000000000 >
b1000010100 =
b10011110101100010000000000 A
1C
1:
1#
#1290000
0#
#1295000
b10110100111 !
b10110100111 +
b110110100111 )
b110110100111 H
b110110100111 I
1#
#1300000
0#
0&
#1305000
0B
09
1#
#1310000
0#
#1315000
0:
0C
1#
#1320000
0#
#1325000
1B
19
1#
1&
#1330000
0#
#1335000
b1000010100 ,
b1000010100 G
1:
1C
b10101010111001100000000000 >
b1000101000 =
b10100100110010111000000000 A
b1000010100 -
b1000010100 ?
b1000010100 @
1#
#1340000
0#
#1345000
b10111010011 !
b10111010011 +
b110111010011 )
b110111010011 H
b110111010011 I
1#
#1350000
0#
0&
#1355000
09
0B
1#
#1360000
0#
#1365000
0C
0:
1#
#1370000
0#
#1375000
19
1B
1#
1&
#1380000
0#
#1385000
b1000101000 ,
b1000101000 G
b1000101000 -
b1000101000 ?
b1000101000 @
b10110001000000001000000000 >
b1000111101 =
b10101010111001100000000000 A
1C
1:
1#
#1390000
0#
#1395000
b10111111101 !
b10111111101 +
b110111111101 )
b110111111101 H
b110111111101 I
1#
#1400000
0#
0&
#1405000
0B
09
1#
#1410000
0#
#1415000
0:
0C
1#
#1420000
0#
#1425000
1B
19
1#
1&
#1430000
0#
#1435000
b1000111101 ,
b1000111101 G
1:
1C
b10110111000110110000000000 >
b1001010001 =
b10110001000000001000000000 A
b1000111101 -
b1000111101 ?
b1000111101 @
1#
#1440000
0#
#1445000
b11000101000 !
b11000101000 +
b111000101000 )
b111000101000 H
b111000101000 I
1#
#1450000
0#
0&
#1455000
09
0B
1#
#1460000
0#
#1465000
0C
0:
1#
#1470000
0#
#1475000
19
1B
1#
1&
#1480000
0#
#1485000
b1001010001 ,
b1001010001 G
b1001010001 -
b1001010001 ?
b1001010001 @
b10111101001101011000000000 >
b1001100110 =
b10110111000110110000000000 A
1C
1:
1#
#1490000
0#
#1495000
b11001001111 !
b11001001111 +
b111001001111 )
b111001001111 H
b111001001111 I
1#
#1500000
0#
0&
#1505000
0B
09
1#
#1510000
0#
#1515000
0:
0C
1#
#1520000
0#
#1525000
1B
19
1#
1&
#1530000
0#
#1535000
b1001100110 ,
b1001100110 G
1:
1C
b11000011010100000000000000 >
b1001111010 =
b10111101001101011000000000 A
b1001100110 -
b1001100110 ?
b1001100110 @
1#
#1540000
0#
#1545000
b11001110111 !
b11001110111 +
b111001110111 )
b111001110111 H
b111001110111 I
1#
#1550000
0#
0&
#1555000
09
0B
1#
#1560000
0#
#1565000
0C
0:
1#
#1570000
0#
#1575000
19
1B
1#
1&
#1580000
0#
#1585000
b1001111010 ,
b1001111010 G
b1001111010 -
b1001111010 ?
b1001111010 @
b11001001011010101000000000 >
b1010001111 =
b11000011010100000000000000 A
1C
1:
1#
#1590000
0#
#1595000
b11010011011 !
b11010011011 +
b111010011011 )
b111010011011 H
b111010011011 I
1#
#1600000
0#
0&
#1605000
0B
09
1#
#1610000
0#
#1615000
0:
0C
1#
#1620000
0#
#1625000
1B
19
1#
1&
#1630000
0#
#1635000
b1010001111 ,
b1010001111 G
1:
1C
b11001111100001010000000000 >
b1010100011 =
b11001001011010101000000000 A
b1010001111 -
b1010001111 ?
b1010001111 @
1#
#1640000
0#
#1645000
b11010111111 !
b11010111111 +
b111010111111 )
b111010111111 H
b111010111111 I
1#
#1650000
0#
0&
#1655000
09
0B
1#
#1660000
0#
#1665000
0C
0:
1#
#1670000
0#
#1675000
19
1B
1#
1&
#1680000
0#
#1685000
b1010100011 ,
b1010100011 G
b1010100011 -
b1010100011 ?
b1010100011 @
b11010101100111111000000000 >
b1010111000 =
b11001111100001010000000000 A
1C
1:
1#
#1690000
0#
#1695000
b11011100000 !
b11011100000 +
b111011100000 )
b111011100000 H
b111011100000 I
1#
#1700000
0#
0&
#1705000
0B
09
1#
#1710000
0#
#1715000
0:
0C
1#
#1720000
0#
#1725000
1B
19
1#
1&
#1730000
0#
#1735000
b1010111000 ,
b1010111000 G
1:
1C
b11011011101110100000000000 >
b1011001100 =
b11010101100111111000000000 A
b1010111000 -
b1010111000 ?
b1010111000 @
1#
#1740000
0#
#1745000
b11100000001 !
b11100000001 +
b111100000001 )
b111100000001 H
b111100000001 I
1#
#1750000
0#
0&
#1755000
09
0B
1#
#1760000
0#
#1765000
0C
0:
1#
#1770000
0#
#1775000
19
1B
1#
1&
#1780000
0#
#1785000
b1011001100 ,
b1011001100 G
b1011001100 -
b1011001100 ?
b1011001100 @
b11100001110101001000000000 >
b1011100001 =
b11011011101110100000000000 A
1C
1:
1#
#1790000
0#
#1795000
b11100011110 !
b11100011110 +
b111100011110 )
b111100011110 H
b111100011110 I
1#
#1800000
0#
0&
#1805000
0B
09
1#
#1810000
0#
#1815000
0:
0C
1#
#1820000
0#
#1825000
1B
19
1#
1&
#1830000
0#
#1835000
b1011100001 ,
b1011100001 G
1:
1C
b11100111111011110000000000 >
b1011110101 =
b11100001110101001000000000 A
b1011100001 -
b1011100001 ?
b1011100001 @
1#
#1840000
0#
#1845000
b11100111011 !
b11100111011 +
b111100111011 )
b111100111011 H
b111100111011 I
1#
#1850000
0#
0&
#1855000
09
0B
1#
#1860000
0#
#1865000
0C
0:
1#
#1870000
0#
#1875000
19
1B
1#
1&
#1880000
0#
#1885000
b1011110101 ,
b1011110101 G
b1011110101 -
b1011110101 ?
b1011110101 @
b11101110000010011000000000 >
b1100001010 =
b11100111111011110000000000 A
1C
1:
1#
#1890000
0#
#1895000
b11101010101 !
b11101010101 +
b111101010101 )
b111101010101 H
b111101010101 I
1#
#1900000
0#
0&
#1905000
0B
09
1#
#1910000
0#
#1915000
0:
0C
1#
#1920000
0#
#1925000
1B
19
1#
1&
#1930000
0#
#1935000
b1100001010 ,
b1100001010 G
1:
1C
b11110100001001000000000000 >
b1100011110 =
b11101110000010011000000000 A
b1100001010 -
b1100001010 ?
b1100001010 @
1#
#1940000
0#
#1945000
b11101101110 !
b11101101110 +
b111101101110 )
b111101101110 H
b111101101110 I
1#
#1950000
0#
0&
#1955000
09
0B
1#
#1960000
0#
#1965000
0C
0:
1#
#1970000
0#
#1975000
19
1B
1#
1&
#1980000
0#
#1985000
b1100011110 ,
b1100011110 G
b1100011110 -
b1100011110 ?
b1100011110 @
b11111010001111101000000000 >
b1100110011 =
b11110100001001000000000000 A
1C
1:
1#
#1990000
0#
#1995000
b11110000101 !
b11110000101 +
b111110000101 )
b111110000101 H
b111110000101 I
1#
#2000000
0#
0&
#2005000
0B
09
1#
#2010000
0#
#2015000
0:
0C
1#
#2020000
0#
#2025000
1B
19
1#
1&
#2030000
0#
#2035000
b1100110011 ,
b1100110011 G
1:
1C
b100000000010110010000000000 >
b1101000111 =
b11111010001111101000000000 A
b1100110011 -
b1100110011 ?
b1100110011 @
1#
#2040000
0#
#2045000
b11110011010 !
b11110011010 +
b111110011010 )
b111110011010 H
b111110011010 I
1#
#2050000
0#
0&
#2055000
09
0B
1#
#2060000
0#
#2065000
0C
0:
1#
#2070000
0#
#2075000
19
1B
1#
1&
#2080000
0#
#2085000
b1101000111 ,
b1101000111 G
b1101000111 -
b1101000111 ?
b1101000111 @
b100000110011100111000000000 >
b1101011100 =
b100000000010110010000000000 A
1C
1:
1#
#2090000
0#
#2095000
b11110101101 !
b11110101101 +
b111110101101 )
b111110101101 H
b111110101101 I
1#
#2100000
0#
0&
#2105000
0B
09
1#
#2110000
0#
#2115000
0:
0C
1#
#2120000
0#
#2125000
1B
19
1#
1&
#2130000
0#
#2135000
b1101011100 ,
b1101011100 G
1:
1C
b100001100100011100000000000 >
b1101110000 =
b100000110011100111000000000 A
b1101011100 -
b1101011100 ?
b1101011100 @
1#
#2140000
0#
#2145000
b11110111110 !
b11110111110 +
b111110111110 )
b111110111110 H
b111110111110 I
1#
#2150000
0#
0&
#2155000
09
0B
1#
#2160000
0#
#2165000
0C
0:
1#
#2170000
0#
#2175000
19
1B
1#
1&
#2180000
0#
#2185000
b1101110000 ,
b1101110000 G
b1101110000 -
b1101110000 ?
b1101110000 @
b100010010101010001000000000 >
b1110000101 =
b100001100100011100000000000 A
1C
1:
1#
#2190000
0#
#2195000
b11111001101 !
b11111001101 +
b111111001101 )
b111111001101 H
b111111001101 I
1#
#2200000
0#
0&
#2205000
0B
09
1#
#2210000
0#
#2215000
0:
0C
1#
#2220000
0#
#2225000
1B
19
1#
1&
#2230000
0#
#2235000
b1110000101 ,
b1110000101 G
1:
1C
b100011000110000110000000000 >
b1110011001 =
b100010010101010001000000000 A
b1110000101 -
b1110000101 ?
b1110000101 @
1#
#2240000
0#
#2245000
b11111011010 !
b11111011010 +
b111111011010 )
b111111011010 H
b111111011010 I
1#
#2250000
0#
0&
#2255000
09
0B
1#
#2260000
0#
#2265000
0C
0:
1#
#2270000
0#
#2275000
19
1B
1#
1&
#2280000
0#
#2285000
b1110011001 ,
b1110011001 G
b1110011001 -
b1110011001 ?
b1110011001 @
b100011110110111011000000000 >
b1110101110 =
b100011000110000110000000000 A
1C
1:
1#
#2290000
0#
#2295000
b11111100101 !
b11111100101 +
b111111100101 )
b111111100101 H
b111111100101 I
1#
#2300000
0#
0&
#2305000
0B
09
1#
#2310000
0#
#2315000
0:
0C
1#
#2320000
0#
#2325000
1B
19
1#
1&
#2330000
0#
#2335000
b1110101110 ,
b1110101110 G
1:
1C
b100100100111110000000000000 >
b1111000010 =
b100011110110111011000000000 A
b1110101110 -
b1110101110 ?
b1110101110 @
1#
#2340000
0#
#2345000
b11111101110 !
b11111101110 +
b111111101110 )
b111111101110 H
b111111101110 I
1#
#2350000
0#
0&
#2355000
09
0B
1#
#2360000
0#
#2365000
0C
0:
1#
#2370000
0#
#2375000
19
1B
1#
1&
#2380000
0#
#2385000
b1111000010 ,
b1111000010 G
b1111000010 -
b1111000010 ?
b1111000010 @
b100101011000100101000000000 >
b1111010111 =
b100100100111110000000000000 A
1C
1:
1#
#2390000
0#
#2395000
b11111110101 !
b11111110101 +
b111111110101 )
b111111110101 H
b111111110101 I
1#
#2400000
0#
0&
#2405000
0B
09
1#
#2410000
0#
#2415000
0:
0C
1#
#2420000
0#
#2425000
1B
19
1#
1&
#2430000
0#
#2435000
b1111010111 ,
b1111010111 G
1:
1C
b100110001001011010000000000 >
b1111101011 =
b100101011000100101000000000 A
b1111010111 -
b1111010111 ?
b1111010111 @
1#
#2440000
0#
#2445000
b11111111010 !
b11111111010 +
b111111111010 )
b111111111010 H
b111111111010 I
1#
#2450000
0#
0&
#2455000
09
0B
1#
#2460000
0#
#2465000
0C
0:
1#
#2470000
0#
#2475000
19
1B
1#
1&
#2480000
0#
#2485000
b1111101011 ,
b1111101011 G
b1111101011 -
b1111101011 ?
b1111101011 @
b100110111010001111000000000 >
b10000000000 =
b100110001001011010000000000 A
1C
1:
1#
#2490000
0#
#2495000
b11111111101 !
b11111111101 +
b111111111101 )
b111111111101 H
b111111111101 I
1#
#2500000
0#
0&
#2505000
0B
09
1#
#2510000
0#
#2515000
0:
0C
1#
#2520000
0#
#2525000
1B
19
1#
1&
#2530000
0#
#2535000
b10000000000 ,
b10000000000 G
1:
1C
b100111101011000100000000000 >
b10000010100 =
b100110111010001111000000000 A
b10000000000 -
b10000000000 ?
b10000000000 @
1#
#2540000
0#
#2545000
b11111111111 !
b11111111111 +
b111111111111 )
b111111111111 H
b111111111111 I
1#
#2550000
0#
0&
#2555000
09
0B
1#
#2560000
0#
#2565000
0C
0:
1#
#2570000
0#
#2575000
19
1B
1#
1&
#2580000
0#
#2585000
b10000010100 ,
b10000010100 G
b10000010100 -
b10000010100 ?
b10000010100 @
b101000011011111001000000000 >
b10000101000 =
b100111101011000100000000000 A
1C
1:
1#
#2590000
0#
#2595000
b11111111110 !
b11111111110 +
b111111111110 )
b111111111110 H
b111111111110 I
1#
#2600000
0#
0&
#2605000
0B
09
1#
#2610000
0#
#2615000
0:
0C
1#
#2620000
0#
#2625000
1B
19
1#
1&
#2630000
0#
#2635000
b10000101000 ,
b10000101000 G
1:
1C
b101001001100101110000000000 >
b10000111101 =
b101000011011111001000000000 A
b10000101000 -
b10000101000 ?
b10000101000 @
1#
#2640000
0#
#2645000
b11111111011 !
b11111111011 +
b111111111011 )
b111111111011 H
b111111111011 I
1#
#2650000
0#
0&
#2655000
09
0B
1#
#2660000
0#
#2665000
0C
0:
1#
#2670000
0#
#2675000
19
1B
1#
1&
#2680000
0#
#2685000
b10000111101 ,
b10000111101 G
b10000111101 -
b10000111101 ?
b10000111101 @
b101001111101100011000000000 >
b10001010001 =
b101001001100101110000000000 A
1C
1:
1#
#2690000
0#
#2695000
b11111110110 !
b11111110110 +
b111111110110 )
b111111110110 H
b111111110110 I
1#
#2700000
0#
0&
#2705000
0B
09
1#
#2710000
0#
#2715000
0:
0C
1#
#2720000
0#
#2725000
1B
19
1#
1&
#2730000
0#
#2735000
b10001010001 ,
b10001010001 G
1:
1C
b101010101110011000000000000 >
b10001100110 =
b101001111101100011000000000 A
b10001010001 -
b10001010001 ?
b10001010001 @
1#
#2740000
0#
#2745000
b11111101111 !
b11111101111 +
b111111101111 )
b111111101111 H
b111111101111 I
1#
#2750000
0#
0&
#2755000
09
0B
1#
#2760000
0#
#2765000
0C
0:
1#
#2770000
0#
#2775000
19
1B
1#
1&
#2780000
0#
#2785000
b10001100110 ,
b10001100110 G
b10001100110 -
b10001100110 ?
b10001100110 @
b101011011111001101000000000 >
b10001111010 =
b101010101110011000000000000 A
1C
1:
1#
#2790000
0#
#2795000
b11111100101 !
b11111100101 +
b111111100101 )
b111111100101 H
b111111100101 I
1#
#2800000
0#
0&
#2805000
0B
09
1#
#2810000
0#
#2815000
0:
0C
1#
#2820000
0#
#2825000
1B
19
1#
1&
#2830000
0#
#2835000
b10001111010 ,
b10001111010 G
1:
1C
b101100010000000010000000000 >
b10010001111 =
b101011011111001101000000000 A
b10001111010 -
b10001111010 ?
b10001111010 @
1#
#2840000
0#
#2845000
b11111011011 !
b11111011011 +
b111111011011 )
b111111011011 H
b111111011011 I
1#
#2850000
0#
0&
#2855000
09
0B
1#
#2860000
0#
#2865000
0C
0:
1#
#2870000
0#
#2875000
19
1B
1#
1&
#2880000
0#
#2885000
b10010001111 ,
b10010001111 G
b10010001111 -
b10010001111 ?
b10010001111 @
b101101000000110111000000000 >
b10010100011 =
b101100010000000010000000000 A
1C
1:
1#
#2890000
0#
#2895000
b11111001101 !
b11111001101 +
b111111001101 )
b111111001101 H
b111111001101 I
1#
#2900000
0#
0&
#2905000
0B
09
1#
#2910000
0#
#2915000
0:
0C
1#
#2920000
0#
#2925000
1B
19
1#
1&
#2930000
0#
#2935000
b10010100011 ,
b10010100011 G
1:
1C
b101101110001101100000000000 >
b10010111000 =
b101101000000110111000000000 A
b10010100011 -
b10010100011 ?
b10010100011 @
1#
#2940000
0#
#2945000
b11110111111 !
b11110111111 +
b111110111111 )
b111110111111 H
b111110111111 I
1#
#2950000
0#
0&
#2955000
09
0B
1#
#2960000
0#
#2965000
0C
0:
1#
#2970000
0#
#2975000
19
1B
1#
1&
#2980000
0#
#2985000
b10010111000 ,
b10010111000 G
b10010111000 -
b10010111000 ?
b10010111000 @
b101110100010100001000000000 >
b10011001100 =
b101101110001101100000000000 A
1C
1:
1#
#2990000
0#
#2995000
b11110101110 !
b11110101110 +
b111110101110 )
b111110101110 H
b111110101110 I
1#
#3000000
0#
0&
#3005000
0B
09
1#
#3010000
0#
#3015000
0:
0C
1#
#3020000
0#
#3025000
1B
19
1#
1&
#3030000
0#
#3035000
b10011001100 ,
b10011001100 G
1:
1C
b101111010011010110000000000 >
b10011100001 =
b101110100010100001000000000 A
b10011001100 -
b10011001100 ?
b10011001100 @
1#
#3040000
0#
#3045000
b11110011011 !
b11110011011 +
b111110011011 )
b111110011011 H
b111110011011 I
1#
#3050000
0#
0&
#3055000
09
0B
1#
#3060000
0#
#3065000
0C
0:
1#
#3070000
0#
#3075000
19
1B
1#
1&
#3080000
0#
#3085000
b10011100001 ,
b10011100001 G
b10011100001 -
b10011100001 ?
b10011100001 @
b110000000100001011000000000 >
b10011110101 =
b101111010011010110000000000 A
1C
1:
1#
#3090000
0#
