func_gen/func_gen.vcd
$date
	Tue Nov  7 01:22:12 2023
$end
$version
	Icarus Verilog
$end
$timescale
	1ps
$end
$scope module tb_func_gen $end
$var wire 16 ! wave [15:0] $end
$var reg 3 " a_set [2:0] $end
$var reg 1 # clk $end
$var reg 19 $ f_set [18:0] $end
$var reg 1 % rst $end
$var reg 1 & s_clk $end
$var reg 1 ' w_set $end
$scope module func_gen $end
$var wire 3 ( a_set [2:0] $end
$var wire 1 # clk $end
$var wire 19 ) f_set [18:0] $end
$var wire 1 % rst $end
$var wire 1 & s_clk $end
$var wire 1 ' w_set $end
$var wire 16 * wave [15:0] $end
$var wire 12 + uwave_w [11:0] $end
$var wire 12 , swave_w [11:0] $end
$var wire 12 - addr_w_i [11:0] $end
$var wire 12 . addr_w [11:0] $end
$var reg 16 / wave_r [15:0] $end
$scope module addr_gen $end
$var wire 1 # clk $end
$var wire 19 0 f_set [18:0] $end
$var wire 1 % rst $end
$var wire 1 & s_clk $end
$var wire 25 1 f_din [24:0] $end
$var wire 26 2 cnt_in [25:0] $end
$var wire 26 3 cnt_df [25:0] $end
$var wire 12 4 addr [11:0] $end
$var reg 12 5 addr_r [11:0] $end
$var reg 26 6 cnt_bas [25:0] $end
$var reg 1 7 pl0 $end
$var reg 1 8 pl1 $end
$upscope $end
$scope module usin_rom $end
$var wire 12 9 addr [11:0] $end
$var wire 1 # clk $end
$var wire 1 % rst $end
$var wire 12 : dout [11:0] $end
$var reg 12 ; dout_r [11:0] $end
$upscope $end
$upscope $end
$upscope $end
$enddefinitions $end
#0
$dumpvars
bx ;
bx :
bx 9
x8
x7
bx 6
bx 5
bx 4
bx 3
bx 2
b10011100010000000000 1
b10011100010000 0
bx /
bx .
bx -
bx ,
bx +
bx *
b10011100010000 )
b0 (
0'
0&
1%
b10011100010000 $
0#
b0 "
bx !
$end
#10000
b0 -
b0 9
b1111110000000000 !
b1111110000000000 *
b1111110000000000 /
08
07
b10011100010000000000 3
b0 2
b0 6
b0 .
b0 4
b0 5
b100000000000 ,
b0 +
b0 :
b0 ;
0%
#20000
1%
#50000
b0 !
b0 *
b0 /
b0 ,
b100000000000 +
b100000000000 :
b100000000000 ;
1#
#100000
0#
#150000
1#
#200000
0#
#250000
1#
#300000
0#
#350000
1#
#400000
0#
#450000
1#
#500000
0#
1&
#550000
17
1#
#600000
0#
#650000
b100111000100000000000 3
b101000 2
b10011100010000000000 6
18
1#
#700000
0#
#750000
1#
#800000
0#
#850000
1#
#900000
0#
#950000
1#
#1000000
0#
0&
#1050000
07
1#
#1100000
0#
#1150000
08
1#
#1200000
0#
#1250000
1#
#1300000
0#
#1350000
1#
#1400000
0#
#1450000
1#
#1500000
0#
1&
#1550000
17
1#
#1600000
0#
#1650000
b101000 -
b101000 9
b101000 .
b101000 4
b101000 5
b111010100110000000000 3
b1010001 2
b100111000100000000000 6
18
1#
#1700000
0#
#1750000
b111110 !
b111110 *
b111110 /
b1111101 ,
b100001111101 +
b100001111101 :
b100001111101 ;
1#
#1800000
0#
#1850000
1#
#1900000
0#
#1950000
1#
#2000000
0#
0&
#2050000
07
1#
#2100000
0#
#2150000
08
1#
#2200000
0#
#2250000
1#
#2300000
0#
#2350000
1#
#2400000
0#
#2450000
1#
#2500000
0#
1&
#2550000
17
1#
#2600000
0#
#2650000
b1010001 -
b1010001 9
b1010001 .
b1010001 4
b1010001 5
b1001110001000000000000 3
b1111010 2
b111010100110000000000 6
18
1#
#2700000
0#
#2750000
b1111110 !
b1111110 *
b1111110 /
b11111101 ,
b100011111101 +
b100011111101 :
b100011111101 ;
1#
#2800000
0#
#2850000
1#
#2900000
0#
#2950000
1#
#3000000
0#
0&
#3050000
07
1#
#3100000
0#
#3150000
08
1#
#3200000
0#
#3250000
1#
#3300000
0#
#3350000
1#
#3400000
0#
#3450000
1#
#3500000
0#
1&
#3550000
17
1#
#3600000
0#
#3650000
b1111010 -
b1111010 9
b1111010 .
b1111010 4
b1111010 5
b1100001101010000000000 3
b10100011 2
b1001110001000000000000 6
18
1#
#3700000
0#
#3750000
b10111110 !
b10111110 *
b10111110 /
b101111100 ,
b100101111100 +
b100101111100 :
b100101111100 ;
1#
#3800000
0#
#3850000
1#
#3900000
0#
#3950000
1#
#4000000
0#
0&
#4050000
07
1#
#4100000
0#
#4150000
08
1#
#4200000
0#
#4250000
1#
#4300000
0#
#4350000
1#
#4400000
0#
#4450000
1#
#4500000
0#
1&
#4550000
17
1#
#4600000
0#
#4650000
b10100011 -
b10100011 9
b10100011 .
b10100011 4
b10100011 5
b1110101001100000000000 3
b11001100 2
b1100001101010000000000 6
18
1#
#4700000
0#
#4750000
b11111101 !
b11111101 *
b11111101 /
b111111010 ,
b100111111010 +
b100111111010 :
b100111111010 ;
1#
#4800000
0#
#4850000
1#
#4900000
0#
#4950000
1#
#5000000
0#
0&
#5050000
07
1#
#5100000
0#
#5150000
08
1#
#5200000
0#
#5250000
1#
#5300000
0#
#5350000
1#
#5400000
0#
#5450000
1#
#5500000
0#
1&
#5550000
17
1#
#5600000
0#
#5650000
b11001100 -
b11001100 9
b11001100 .
b11001100 4
b11001100 5
b10001000101110000000000 3
b11110101 2
b1110101001100000000000 6
18
1#
#5700000
0#
#5750000
b100111011 !
b100111011 *
b100111011 /
b1001110110 ,
b101001110110 +
b101001110110 :
b101001110110 ;
1#
#5800000
0#
#5850000
1#
#5900000
0#
#5950000
1#
#6000000
0#
0&
#6050000
07
1#
#6100000
0#
#6150000
08
1#
#6200000
0#
#6250000
1#
#6300000
0#
#6350000
1#
#6400000
0#
#6450000
1#
#6500000
0#
1&
#6550000
17
1#
#6600000
0#
#6650000
b11110101 -
b11110101 9
b11110101 .
b11110101 4
b11110101 5
b10011100010000000000000 3
b100011110 2
b10001000101110000000000 6
18
1#
#6700000
0#
#6750000
b101110111 !
b101110111 *
b101110111 /
b1011101111 ,
b101011101111 +
b101011101111 :
b101011101111 ;
1#
#6800000
0#
#6850000
1#
#6900000
0#
#6950000
1#
#7000000
0#
0&
#7050000
07
1#
#7100000
0#
#7150000
08
1#
#7200000
0#
#7250000
1#
#7300000
0#
#7350000
1#
#7400000
0#
#7450000
1#
#7500000
0#
1&
#7550000
17
1#
#7600000
0#
#7650000
b100011110 -
b100011110 9
b100011110 .
b100011110 4
b100011110 5
b10101111110010000000000 3
b101000111 2
b10011100010000000000000 6
18
1#
#7700000
0#
#7750000
b110110010 !
b110110010 *
b110110010 /
b1101100101 ,
b101101100101 +
b101101100101 :
b101101100101 ;
1#
#7800000
0#
#7850000
1#
#7900000
0#
#7950000
1#
#8000000
0#
0&
#8050000
07
1#
#8100000
0#
#8150000
08
1#
#8200000
0#
#8250000
1#
#8300000
0#
#8350000
1#
#8400000
0#
#8450000
1#
#8500000
0#
1&
#8550000
17
1#
#8600000
0#
#8650000
b101000111 -
b101000111 9
b101000111 .
b101000111 4
b101000111 5
b11000011010100000000000 3
b101110000 2
b10101111110010000000000 6
18
1#
#8700000
0#
#8750000
b111101100 !
b111101100 *
b111101100 /
b1111011000 ,
b101111011000 +
b101111011000 :
b101111011000 ;
1#
#8800000
0#
#8850000
1#
#8900000
0#
#8950000
1#
#9000000
0#
0&
#9050000
07
1#
#9100000
0#
#9150000
08
1#
#9200000
0#
#9250000
1#
#9300000
0#
#9350000
1#
#9400000
0#
#9450000
1#
#9500000
0#
1&
#9550000
17
1#
#9600000
0#
#9650000
b101110000 -
b101110000 9
b101110000 .
b101110000 4
b101110000 5
b11010110110110000000000 3
b110011001 2
b11000011010100000000000 6
18
1#
#9700000
0#
#9750000
b1000100011 !
b1000100011 *
b1000100011 /
b10001000111 ,
b110001000111 +
b110001000111 :
b110001000111 ;
1#
#9800000
0#
#9850000
1#
#9900000
0#
#9950000
1#
#10000000
0#
0&
#10050000
07
1#
#10100000
0#
#10150000
08
1#
#10200000
0#
#10250000
1#
#10300000
0#
#10350000
1#
#10400000
0#
#10450000
1#
#10500000
0#
1&
#10550000
17
1#
#10600000
0#
#10650000
b110011001 -
b110011001 9
b110011001 .
b110011001 4
b110011001 5
b11101010011000000000000 3
b111000010 2
b11010110110110000000000 6
18
1#
#10700000
0#
#10750000
b1001011000 !
b1001011000 *
b1001011000 /
b10010110001 ,
b110010110001 +
b110010110001 :
b110010110001 ;
1#
#10800000
0#
#10850000
1#
#10900000
0#
#10950000
1#
#11000000
0#
0&
#11050000
07
1#
#11100000
0#
#11150000
08
1#
#11200000
0#
#11250000
1#
#11300000
0#
#11350000
1#
#11400000
0#
#11450000
1#
#11500000
0#
1&
#11550000
17
1#
#11600000
0#
#11650000
b111000010 -
b111000010 9
b111000010 .
b111000010 4
b111000010 5
b11111101111010000000000 3
b111101011 2
b11101010011000000000000 6
18
1#
#11700000
0#
#11750000
b1010001011 !
b1010001011 *
b1010001011 /
b10100010111 ,
b110100010111 +
b110100010111 :
b110100010111 ;
1#
#11800000
0#
#11850000
1#
#11900000
0#
#11950000
1#
#12000000
0#
0&
#12050000
07
1#
#12100000
0#
#12150000
08
1#
#12200000
0#
#12250000
1#
#12300000
0#
#12350000
1#
#12400000
0#
#12450000
1#
#12500000
0#
1&
#12550000
17
1#
#12600000
0#
#12650000
b111101011 -
b111101011 9
b111101011 .
b111101011 4
b111101011 5
b100010001011100000000000 3
b1000010100 2
b11111101111010000000000 6
18
1#
#12700000
0#
#12750000
b1010111100 !
b1010111100 *
b1010111100 /
b10101111000 ,
b110101111000 +
b110101111000 :
b110101111000 ;
1#
#12800000
0#
#12850000
1#
#12900000
0#
#12950000
1#
#13000000
0#
0&
#13050000
07
1#
#13100000
0#
#13150000
08
1#
#13200000
0#
#13250000
1#
#13300000
0#
#13350000
1#
#13400000
0#
#13450000
1#
#13500000
0#
1&
#13550000
17
1#
#13600000
0#
#13650000
b1000010100 -
b1000010100 9
b1000010100 .
b1000010100 4
b1000010100 5
b100100100111110000000000 3
b1000111101 2
b100010001011100000000000 6
18
1#
#13700000
0#
#13750000
b1011101001 !
b1011101001 *
b1011101001 /
b10111010011 ,
b110111010011 +
b110111010011 :
b110111010011 ;
1#
#13800000
0#
#13850000
1#
#13900000
0#
#13950000
1#
#14000000
0#
0&
#14050000
07
1#
#14100000
0#
#14150000
08
1#
#14200000
0#
#14250000
1#
#14300000
0#
#14350000
1#
#14400000
0#
#14450000
1#
#14500000
0#
1&
#14550000
17
1#
#14600000
0#
#14650000
b1000111101 -
b1000111101 9
b1000111101 .
b1000111101 4
b1000111101 5
b100111000100000000000000 3
b1001100110 2
b100100100111110000000000 6
18
1#
#14700000
0#
#14750000
b1100010100 !
b1100010100 *
b1100010100 /
b11000101000 ,
b111000101000 +
b111000101000 :
b111000101000 ;
1#
#14800000
0#
#14850000
1#
#14900000
0#
#14950000
1#
#15000000
0#
0&
#15050000
07
1#
#15100000
0#
#15150000
08
1#
#15200000
0#
#15250000
1#
#15300000
0#
#15350000
1#
#15400000
0#
#15450000
1#
#15500000
0#
1&
#15550000
17
1#
#15600000
0#
#15650000
b1001100110 -
b1001100110 9
b1001100110 .
b1001100110 4
b1001100110 5
b101001100000010000000000 3
b1010001111 2
b100111000100000000000000 6
18
1#
#15700000
0#
#15750000
b1100111011 !
b1100111011 *
b1100111011 /
b11001110111 ,
b111001110111 +
b111001110111 :
b111001110111 ;
1#
#15800000
0#
#15850000
1#
#15900000
0#
#15950000
1#
#16000000
0#
0&
#16050000
07
1#
#16100000
0#
#16150000
08
1#
#16200000
0#
#16250000
1#
#16300000
0#
#16350000
1#
#16400000
0#
#16450000
1#
#16500000
0#
1&
#16550000
17
1#
#16600000
0#
#16650000
b1010001111 -
b1010001111 9
b1010001111 .
b1010001111 4
b1010001111 5
b101011111100100000000000 3
b1010111000 2
b101001100000010000000000 6
18
1#
#16700000
0#
#16750000
b1101011111 !
b1101011111 *
b1101011111 /
b11010111111 ,
b111010111111 +
b111010111111 :
b111010111111 ;
1#
#16800000
0#
#16850000
1#
#16900000
0#
#16950000
1#
#17000000
0#
0&
#17050000
07
1#
#17100000
0#
#17150000
08
1#
#17200000
0#
#17250000
1#
#17300000
0#
#17350000
1#
#17400000
0#
#17450000
1#
#17500000
0#
1&
#17550000
17
1#
#17600000
0#
#17650000
b1010111000 -
b1010111000 9
b1010111000 .
b1010111000 4
b1010111000 5
b101110011000110000000000 3
b1011100001 2
b101011111100100000000000 6
18
1#
#17700000
0#
#17750000
b1110000000 !
b1110000000 *
b1110000000 /
b11100000001 ,
b111100000001 +
b111100000001 :
b111100000001 ;
1#
#17800000
0#
#17850000
1#
#17900000
0#
#17950000
1#
#18000000
0#
0&
#18050000
07
1#
#18100000
0#
#18150000
08
1#
#18200000
0#
#18250000
1#
#18300000
0#
#18350000
1#
#18400000
0#
#18450000
1#
#18500000
0#
1&
#18550000
17
1#
#18600000
0#
#18650000
b1011100001 -
b1011100001 9
b1011100001 .
b1011100001 4
b1011100001 5
b110000110101000000000000 3
b1100001010 2
b101110011000110000000000 6
18
1#
#18700000
0#
#18750000
b1110011101 !
b1110011101 *
b1110011101 /
b11100111011 ,
b111100111011 +
b111100111011 :
b111100111011 ;
1#
#18800000
0#
#18850000
1#
#18900000
0#
#18950000
1#
#19000000
0#
0&
#19050000
07
1#
#19100000
0#
#19150000
08
1#
#19200000
0#
#19250000
1#
#19300000
0#
#19350000
1#
#19400000
0#
#19450000
1#
#19500000
0#
1&
#19550000
17
1#
#19600000
0#
#19650000
b1100001010 -
b1100001010 9
b1100001010 .
b1100001010 4
b1100001010 5
b110011010001010000000000 3
b1100110011 2
b110000110101000000000000 6
18
1#
#19700000
0#
#19750000
b1110110111 !
b1110110111 *
b1110110111 /
b11101101110 ,
b111101101110 +
b111101101110 :
b111101101110 ;
1#
#19800000
0#
#19850000
1#
#19900000
0#
#19950000
1#
#20000000
0#
0&
#20050000
07
1#
#20100000
0#
#20150000
08
1#
#20200000
0#
#20250000
1#
#20300000
0#
#20350000
1#
#20400000
0#
#20450000
1#
#20500000
0#
1&
#20550000
17
1#
#20600000
0#
#20650000
b1100110011 -
b1100110011 9
b1100110011 .
b1100110011 4
b1100110011 5
b110101101101100000000000 3
b1101011100 2
b110011010001010000000000 6
18
1#
#20700000
0#
#20750000
b1111001101 !
b1111001101 *
b1111001101 /
b11110011010 ,
b111110011010 +
b111110011010 :
b111110011010 ;
1#
#20800000
0#
#20850000
1#
#20900000
0#
#20950000
1#
#21000000
0#
0&
#21050000
07
1#
#21100000
0#
#21150000
08
1#
#21200000
0#
#21250000
1#
#21300000
0#
#21350000
1#
#21400000
0#
#21450000
1#
#21500000
0#
1&
#21550000
17
1#
#21600000
0#
#21650000
b1101011100 -
b1101011100 9
b1101011100 .
b1101011100 4
b1101011100 5
b111000001001110000000000 3
b1110000101 2
b110101101101100000000000 6
18
1#
#21700000
0#
#21750000
b1111011111 !
b1111011111 *
b1111011111 /
b11110111110 ,
b111110111110 +
b111110111110 :
b111110111110 ;
1#
#21800000
0#
#21850000
1#
#21900000
0#
#21950000
1#
#22000000
0#
0&
#22050000
07
1#
#22100000
0#
#22150000
08
1#
#22200000
0#
#22250000
1#
#22300000
0#
#22350000
1#
#22400000
0#
#22450000
1#
#22500000
0#
1&
#22550000
17
1#
#22600000
0#
#22650000
b1110000101 -
b1110000101 9
b1110000101 .
b1110000101 4
b1110000101 5
b111010100110000000000000 3
b1110101110 2
b111000001001110000000000 6
18
1#
#22700000
0#
#22750000
b1111101101 !
b1111101101 *
b1111101101 /
b11111011010 ,
b111111011010 +
b111111011010 :
b111111011010 ;
1#
#22800000
0#
#22850000
1#
#22900000
0#
#22950000
1#
#23000000
0#
0&
#23050000
07
1#
#23100000
0#
#23150000
08
1#
#23200000
0#
#23250000
1#
#23300000
0#
#23350000
1#
#23400000
0#
#23450000
1#
#23500000
0#
1&
#23550000
17
1#
#23600000
0#
#23650000
b1110101110 -
b1110101110 9
b1110101110 .
b1110101110 4
b1110101110 5
b111101000010010000000000 3
b1111010111 2
b111010100110000000000000 6
18
1#
#23700000
0#
#23750000
b1111110111 !
b1111110111 *
b1111110111 /
b11111101110 ,
b111111101110 +
b111111101110 :
b111111101110 ;
1#
#23800000
0#
#23850000
1#
#23900000
0#
#23950000
1#
#24000000
0#
0&
#24050000
07
1#
#24100000
0#
#24150000
08
1#
#24200000
0#
#24250000
1#
#24300000
0#
#24350000
1#
#24400000
0#
#24450000
1#
#24500000
0#
1&
#24550000
17
1#
#24600000
0#
#24650000
b1111010111 -
b1111010111 9
b1111010111 .
b1111010111 4
b1111010111 5
b111111011110100000000000 3
b10000000000 2
b111101000010010000000000 6
18
1#
#24700000
0#
#24750000
b1111111101 !
b1111111101 *
b1111111101 /
b11111111010 ,
b111111111010 +
b111111111010 :
b111111111010 ;
1#
#24800000
0#
#24850000
1#
#24900000
0#
#24950000
1#
#25000000
0#
0&
#25050000
07
1#
#25100000
0#
#25150000
08
1#
#25200000
0#
#25250000
1#
#25300000
0#
#25350000
1#
#25400000
0#
#25450000
1#
#25500000
0#
1&
#25550000
17
1#
#25600000
0#
#25650000
b10000000000 -
b10000000000 9
b10000000000 .
b10000000000 4
b10000000000 5
b1000001111010110000000000 3
b10000101000 2
b111111011110100000000000 6
18
1#
#25700000
0#
#25750000
b1111111111 !
b1111111111 *
b1111111111 /
b11111111111 ,
b111111111111 +
b111111111111 :
b111111111111 ;
1#
#25800000
0#
#25850000
1#
#25900000
0#
#25950000
1#
#26000000
0#
0&
#26050000
07
1#
#26100000
0#
#26150000
08
1#
#26200000
0#
#26250000
1#
#26300000
0#
#26350000
1#
#26400000
0#
#26450000
1#
#26500000
0#
1&
#26550000
17
1#
#26600000
0#
#26650000
b10000101000 -
b10000101000 9
b10000101000 .
b10000101000 4
b10000101000 5
b1000100010111000000000000 3
b10001010001 2
b1000001111010110000000000 6
18
1#
#26700000
0#
#26750000
b1111111101 !
b1111111101 *
b1111111101 /
b11111111011 ,
b111111111011 +
b111111111011 :
b111111111011 ;
1#
#26800000
0#
#26850000
1#
#26900000
0#
#26950000
1#
#27000000
0#
0&
#27050000
07
1#
#27100000
0#
#27150000
08
1#
#27200000
0#
#27250000
1#
#27300000
0#
#27350000
1#
#27400000
0#
#27450000
1#
#27500000
0#
1&
#27550000
17
1#
#27600000
0#
#27650000
b10001010001 -
b10001010001 9
b10001010001 .
b10001010001 4
b10001010001 5
b1000110110011010000000000 3
b10001111010 2
b1000100010111000000000000 6
18
1#
#27700000
0#
#27750000
b1111110111 !
b1111110111 *
b1111110111 /
b11111101111 ,
b111111101111 +
b111111101111 :
b111111101111 ;
1#
#27800000
0#
#27850000
1#
#27900000
0#
#27950000
1#
#28000000
0#
0&
#28050000
07
1#
#28100000
0#
#28150000
08
1#
#28200000
0#
#28250000
1#
#28300000
0#
#28350000
1#
#28400000
0#
#28450000
1#
#28500000
0#
1&
#28550000
17
1#
#28600000
0#
#28650000
b10001111010 -
b10001111010 9
b10001111010 .
b10001111010 4
b10001111010 5
b1001001001111100000000000 3
b10010100011 2
b1000110110011010000000000 6
18
1#
#28700000
0#
#28750000
b1111101101 !
b1111101101 *
b1111101101 /
b11111011011 ,
b111111011011 +
b111111011011 :
b111111011011 ;
1#
#28800000
0#
#28850000
1#
#28900000
0#
#28950000
1#
#29000000
0#
0&
#29050000
07
1#
#29100000
0#
#29150000
08
1#
#29200000
0#
#29250000
1#
#29300000
0#
#29350000
1#
#29400000
0#
#29450000
1#
#29500000
0#
1&
#29550000
17
1#
#29600000
0#
#29650000
b10010100011 -
b10010100011 9
b10010100011 .
b10010100011 4
b10010100011 5
b1001011101011110000000000 3
b10011001100 2
b1001001001111100000000000 6
18
1#
#29700000
0#
#29750000
b1111011111 !
b1111011111 *
b1111011111 /
b11110111111 ,
b111110111111 +
b111110111111 :
b111110111111 ;
1#
#29800000
0#
#29850000
1#
#29900000
0#
#29950000
1#
#30000000
0#
0&
#30050000
07
1#
#30100000
0#
#30150000
08
1#
#30200000
0#
#30250000
1#
#30300000
0#
#30350000
1#
#30400000
0#
#30450000
1#
#30500000
0#
1&
#30550000
17
1#
#30600000
0#
#30650000
b10011001100 -
b10011001100 9
b10011001100 .
b10011001100 4
b10011001100 5
b1001110001000000000000000 3
b10011110101 2
b1001011101011110000000000 6
18
1#
#30700000
0#
#30750000
b1111001101 !
b1111001101 *
b1111001101 /
b11110011011 ,
b111110011011 +
b111110011011 :
b111110011011 ;
1#
#30800000
0#
#30850000
1#
#30900000
0#
#30950000
1#
#31000000
0#
0&
#31050000
07
1#
#31100000
0#
#31150000
08
1#
#31200000
0#
#31250000
1#
#31300000
0#
#31350000
1#
#31400000
0#
#31450000
1#
#31500000
0#
1&
#31550000
17
1#
#31600000
0#
#31650000
b10011110101 -
b10011110101 9
b10011110101 .
b10011110101 4
b10011110101 5
b1010000100100010000000000 3
b10100011110 2
b1001110001000000000000000 6
18
1#
#31700000
0#
#31750000
b1110111000 !
b1110111000 *
b1110111000 /
b11101110000 ,
b111101110000 +
b111101110000 :
b111101110000 ;
1#
#31800000
0#
#31850000
1#
#31900000
0#
#31950000
1#
#32000000
0#
0&
#32050000
07
1#
#32100000
0#
#32150000
08
1#
#32200000
0#
#32250000
1#
#32300000
0#
#32350000
1#
#32400000
0#
#32450000
1#
#32500000
0#
1&
#32550000
17
1#
#32600000
0#
#32650000
b10100011110 -
b10100011110 9
b10100011110 .
b10100011110 4
b10100011110 5
b1010011000000100000000000 3
b10101000111 2
b1010000100100010000000000 6
18
1#
#32700000
0#
#32750000
b1110011110 !
b1110011110 *
b1110011110 /
b11100111101 ,
b111100111101 +
b111100111101 :
b111100111101 ;
1#
#32800000
0#
#32850000
1#
#32900000
0#
#32950000
1#
#33000000
0#
0&
#33050000
07
1#
#33100000
0#
#33150000
08
1#
#33200000
0#
#33250000
1#
#33300000
0#
#33350000
1#
#33400000
0#
#33450000
1#
#33500000
0#
1&
#33550000
17
1#
#33600000
0#
#33650000
b10101000111 -
b10101000111 9
b10101000111 .
b10101000111 4
b10101000111 5
b1010101011100110000000000 3
b10101110000 2
b1010011000000100000000000 6
18
1#
#33700000
0#
#33750000
b1110000001 !
b1110000001 *
b1110000001 /
b11100000010 ,
b111100000010 +
b111100000010 :
b111100000010 ;
1#
#33800000
0#
#33850000
1#
#33900000
0#
#33950000
1#
#34000000
0#
0&
#34050000
07
1#
#34100000
0#
#34150000
08
1#
#34200000
0#
#34250000
1#
#34300000
0#
#34350000
1#
#34400000
0#
#34450000
1#
#34500000
0#
1&
#34550000
17
1#
#34600000
0#
#34650000
b10101110000 -
b10101110000 9
b10101110000 .
b10101110000 4
b10101110000 5
b1010111111001000000000000 3
b10110011001 2
b1010101011100110000000000 6
18
1#
#34700000
0#
#34750000
b1101100000 !
b1101100000 *
b1101100000 /
b11011000001 ,
b111011000001 +
b111011000001 :
b111011000001 ;
1#
#34800000
0#
#34850000
1#
#34900000
0#
#34950000
1#
#35000000
0#
0&
#35050000
07
1#
#35100000
0#
#35150000
08
1#
#35200000
0#
#35250000
1#
#35300000
0#
#35350000
1#
#35400000
0#
#35450000
1#
#35500000
0#
1&
#35550000
17
1#
#35600000
0#
#35650000
b10110011001 -
b10110011001 9
b10110011001 .
b10110011001 4
b10110011001 5
b1011010010101010000000000 3
b10111000010 2
b1010111111001000000000000 6
18
1#
#35700000
0#
#35750000
b1100111100 !
b1100111100 *
b1100111100 /
b11001111001 ,
b111001111001 +
b111001111001 :
b111001111001 ;
1#
#35800000
0#
#35850000
1#
#35900000
0#
#35950000
1#
#36000000
0#
0&
#36050000
07
1#
#36100000
0#
#36150000
08
1#
#36200000
0#
#36250000
1#
#36300000
0#
#36350000
1#
#36400000
0#
#36450000
1#
#36500000
0#
1&
#36550000
17
1#
#36600000
0#
#36650000
b10111000010 -
b10111000010 9
b10111000010 .
b10111000010 4
b10111000010 5
b1011100110001100000000000 3
b10111101011 2
b1011010010101010000000000 6
18
1#
#36700000
0#
#36750000
b1100010101 !
b1100010101 *
b1100010101 /
b11000101010 ,
b111000101010 +
b111000101010 :
b111000101010 ;
1#
#36800000
0#
#36850000
1#
#36900000
0#
#36950000
1#
#37000000
0#
0&
#37050000
07
1#
#37100000
0#
#37150000
08
1#
#37200000
0#
#37250000
1#
#37300000
0#
#37350000
1#
#37400000
0#
#37450000
1#
#37500000
0#
1&
#37550000
17
1#
#37600000
0#
#37650000
b10111101011 -
b10111101011 9
b10111101011 .
b10111101011 4
b10111101011 5
b1011111001101110000000000 3
b11000010100 2
b1011100110001100000000000 6
18
1#
#37700000
0#
#37750000
b1011101010 !
b1011101010 *
b1011101010 /
b10111010101 ,
b110111010101 +
b110111010101 :
b110111010101 ;
1#
#37800000
0#
#37850000
1#
#37900000
0#
#37950000
1#
#38000000
0#
0&
#38050000
07
1#
#38100000
0#
#38150000
08
1#
#38200000
0#
#38250000
1#
#38300000
0#
#38350000
1#
#38400000
0#
#38450000
1#
#38500000
0#
1&
#38550000
17
1#
#38600000
0#
#38650000
b11000010100 -
b11000010100 9
b11000010100 .
b11000010100 4
b11000010100 5
b1100001101010000000000000 3
b11000111101 2
b1011111001101110000000000 6
18
1#
#38700000
0#
#38750000
b1010111101 !
b1010111101 *
b1010111101 /
b10101111010 ,
b110101111010 +
b110101111010 :
b110101111010 ;
1#
#38800000
0#
#38850000
1#
#38900000
0#
#38950000
1#
#39000000
0#
0&
#39050000
07
1#
#39100000
0#
#39150000
08
1#
#39200000
0#
#39250000
1#
#39300000
0#
#39350000
1#
#39400000
0#
#39450000
1#
#39500000
0#
1&
#39550000
17
1#
#39600000
0#
#39650000
b11000111101 -
b11000111101 9
b11000111101 .
b11000111101 4
b11000111101 5
b1100100000110010000000000 3
b11001100110 2
b1100001101010000000000000 6
18
1#
#39700000
0#
#39750000
b1010001100 !
b1010001100 *
b1010001100 /
b10100011001 ,
b110100011001 +
b110100011001 :
b110100011001 ;
1#
#39800000
0#
#39850000
1#
#39900000
0#
#39950000
1#
#40000000
0#
0&
#40050000
07
1#
#40100000
0#
#40150000
08
1#
#40200000
0#
#40250000
1#
#40300000
0#
#40350000
1#
#40400000
0#
#40450000
1#
#40500000
0#
1&
#40550000
17
1#
#40600000
0#
#40650000
b11001100110 -
b11001100110 9
b11001100110 .
b11001100110 4
b11001100110 5
b1100110100010100000000000 3
b11010001111 2
b1100100000110010000000000 6
18
1#
#40700000
0#
#40750000
b1001011010 !
b1001011010 *
b1001011010 /
b10010110100 ,
b110010110100 +
b110010110100 :
b110010110100 ;
1#
#40800000
0#
#40850000
1#
#40900000
0#
#40950000
1#
#41000000
0#
0&
#41050000
07
1#
#41100000
0#
#41150000
08
1#
#41200000
0#
#41250000
1#
#41300000
0#
#41350000
1#
#41400000
0#
#41450000
1#
#41500000
0#
1&
#41550000
17
1#
#41600000
0#
#41650000
b11010001111 -
b11010001111 9
b11010001111 .
b11010001111 4
b11010001111 5
b1101000111110110000000000 3
b11010111000 2
b1100110100010100000000000 6
18
1#
#41700000
0#
#41750000
b1000100100 !
b1000100100 *
b1000100100 /
b10001001001 ,
b110001001001 +
b110001001001 :
b110001001001 ;
1#
#41800000
0#
#41850000
1#
#41900000
0#
#41950000
1#
#42000000
0#
0&
#42050000
07
1#
#42100000
0#
#42150000
08
1#
#42200000
0#
#42250000
1#
#42300000
0#
#42350000
1#
#42400000
0#
#42450000
1#
#42500000
0#
1&
#42550000
17
1#
#42600000
0#
#42650000
b11010111000 -
b11010111000 9
b11010111000 .
b11010111000 4
b11010111000 5
b1101011011011000000000000 3
b11011100001 2
b1101000111110110000000000 6
18
1#
#42700000
0#
#42750000
b111101101 !
b111101101 *
b111101101 /
b1111011011 ,
b101111011011 +
b101111011011 :
b101111011011 ;
1#
#42800000
0#
#42850000
1#
#42900000
0#
#42950000
1#
#43000000
0#
0&
#43050000
07
1#
#43100000
0#
#43150000
08
1#
#43200000
0#
#43250000
1#
#43300000
0#
#43350000
1#
#43400000
0#
#43450000
1#
#43500000
0#
1&
#43550000
17
1#
#43600000
0#
#43650000
b11011100001 -
b11011100001 9
b11011100001 .
b11011100001 4
b11011100001 5
b1101101110111010000000000 3
b11100001010 2
b1101011011011000000000000 6
18
1#
#43700000
0#
#43750000
b110110100 !
b110110100 *
b110110100 /
b1101101000 ,
b101101101000 +
b101101101000 :
b101101101000 ;
1#
#43800000
0#
#43850000
1#
#43900000
0#
#43950000
1#
#44000000
0#
0&
#44050000
07
1#
#44100000
0#
#44150000
08
1#
#44200000
0#
#44250000
1#
#44300000
0#
#44350000
1#
#44400000
0#
#44450000
1#
#44500000
0#
1&
#44550000
17
1#
#44600000
0#
#44650000
b11100001010 -
b11100001010 9
b11100001010 .
b11100001010 4
b11100001010 5
b1110000010011100000000000 3
b11100110011 2
b1101101110111010000000000 6
18
1#
#44700000
0#
#44750000
b101111001 !
b101111001 *
b101111001 /
b1011110010 ,
b101011110010 +
b101011110010 :
b101011110010 ;
1#
#44800000
0#
#44850000
1#
#44900000
0#
#44950000
1#
#45000000
0#
0&
#45050000
07
1#
#45100000
0#
#45150000
08
1#
#45200000
0#
#45250000
1#
#45300000
0#
#45350000
1#
#45400000
0#
#45450000
1#
#45500000
0#
1&
#45550000
17
1#
#45600000
0#
#45650000
b11100110011 -
b11100110011 9
b11100110011 .
b11100110011 4
b11100110011 5
b1110010101111110000000000 3
b11101011100 2
b1110000010011100000000000 6
18
1#
#45700000
0#
#45750000
b100111100 !
b100111100 *
b100111100 /
b1001111001 ,
b101001111001 +
b101001111001 :
b101001111001 ;
1#
#45800000
0#
#45850000
1#
#45900000
0#
#45950000
1#
#46000000
0#
0&
#46050000
07
1#
#46100000
0#
#46150000
08
1#
#46200000
0#
#46250000
1#
#46300000
0#
#46350000
1#
#46400000
0#
#46450000
1#
#46500000
0#
1&
#46550000
17
1#
#46600000
0#
